%!PS-Adobe-3.0 EPSF-3.0
%%Title: C:\Users\julienb\lab\oe_data_analysis\figures\paired_ols\\allbands_coeff_barplot.eps
%%Creator: matplotlib version 3.1.0, http://matplotlib.org/
%%CreationDate: Tue Oct 15 14:23:00 2019
%%Orientation: portrait
%%BoundingBox: -54.0 -36.0 666.0 828.0
%%EndComments
%%BeginProlog
/mpldict 8 dict def
mpldict begin
/m { moveto } bind def
/l { lineto } bind def
/r { rlineto } bind def
/c { curveto } bind def
/cl { closepath } bind def
/box {
m
1 index 0 r
0 exch r
neg 0 r
cl
} bind def
/clipbox {
box
clip
newpath
} bind def
%!PS-Adobe-3.0 Resource-Font
%%Title: DejaVu Sans
%%Copyright: Copyright (c) 2003 by Bitstream, Inc. All Rights Reserved. Copyright (c) 2006 by Tavmjong Bah. All Rights Reserved. DejaVu changes are in public domain 
%%Creator: Converted from TrueType to type 3 by PPR
25 dict begin
/_d{bind def}bind def
/_m{moveto}_d
/_l{lineto}_d
/_cl{closepath eofill}_d
/_c{curveto}_d
/_sc{7 -1 roll{setcachedevice}{pop pop pop pop pop pop}ifelse}_d
/_e{exec}_d
/FontName /DejaVuSans def
/PaintType 0 def
/FontMatrix[.001 0 0 .001 0 0]def
/FontBBox[-1021 -463 1793 1232]def
/FontType 3 def
/Encoding [ /period /zero /one /two /three /four /A /B /C /D /I /J /M /P /T /bracketleft /bracketright /underscore /a /b /c /d /e /g /h /i /j /k /l /m /n /o /p /r /s /t /u /v /y /minus ] def
/FontInfo 10 dict dup begin
/FamilyName (DejaVu Sans) def
/FullName (DejaVu Sans) def
/Notice (Copyright (c) 2003 by Bitstream, Inc. All Rights Reserved. Copyright (c) 2006 by Tavmjong Bah. All Rights Reserved. DejaVu changes are in public domain ) def
/Weight (Book) def
/Version (Version 2.35) def
/ItalicAngle 0.0 def
/isFixedPitch false def
/UnderlinePosition -130 def
/UnderlineThickness 90 def
end readonly def
/CharStrings 41 dict dup begin
/.notdef 0 def
/period{318 0 107 0 210 124 _sc
107 124 _m
210 124 _l
210 0 _l
107 0 _l
107 124 _l
_cl}_d
/zero{636 0 66 -13 570 742 _sc
318 664 _m
267 664 229 639 203 589 _c
177 539 165 464 165 364 _c
165 264 177 189 203 139 _c
229 89 267 64 318 64 _c
369 64 407 89 433 139 _c
458 189 471 264 471 364 _c
471 464 458 539 433 589 _c
407 639 369 664 318 664 _c
318 742 _m
399 742 461 709 505 645 _c
548 580 570 486 570 364 _c
570 241 548 147 505 83 _c
461 19 399 -13 318 -13 _c
236 -13 173 19 130 83 _c
87 147 66 241 66 364 _c
66 486 87 580 130 645 _c
173 709 236 742 318 742 _c
_cl}_d
/one{636 0 110 0 544 729 _sc
124 83 _m
285 83 _l
285 639 _l
110 604 _l
110 694 _l
284 729 _l
383 729 _l
383 83 _l
544 83 _l
544 0 _l
124 0 _l
124 83 _l
_cl}_d
/two{{636 0 73 0 536 742 _sc
192 83 _m
536 83 _l
536 0 _l
73 0 _l
73 83 _l
110 121 161 173 226 239 _c
290 304 331 346 348 365 _c
380 400 402 430 414 455 _c
426 479 433 504 433 528 _c
433 566 419 598 392 622 _c
365 646 330 659 286 659 _c
255 659 222 653 188 643 _c
154 632 117 616 78 594 _c
78 694 _l
118 710 155 722 189 730 _c
223 738 255 742 284 742 _c
}_e{359 742 419 723 464 685 _c
509 647 532 597 532 534 _c
532 504 526 475 515 449 _c
504 422 484 390 454 354 _c
446 344 420 317 376 272 _c
332 227 271 164 192 83 _c
_cl}_e}_d
/three{{636 0 76 -13 556 742 _sc
406 393 _m
453 383 490 362 516 330 _c
542 298 556 258 556 212 _c
556 140 531 84 482 45 _c
432 6 362 -13 271 -13 _c
240 -13 208 -10 176 -4 _c
144 1 110 10 76 22 _c
76 117 _l
103 101 133 89 166 81 _c
198 73 232 69 268 69 _c
330 69 377 81 409 105 _c
441 129 458 165 458 212 _c
458 254 443 288 413 312 _c
383 336 341 349 287 349 _c
}_e{202 349 _l
202 430 _l
291 430 _l
339 430 376 439 402 459 _c
428 478 441 506 441 543 _c
441 580 427 609 401 629 _c
374 649 336 659 287 659 _c
260 659 231 656 200 650 _c
169 644 135 635 98 623 _c
98 711 _l
135 721 170 729 203 734 _c
235 739 266 742 296 742 _c
370 742 429 725 473 691 _c
517 657 539 611 539 553 _c
539 513 527 479 504 451 _c
481 423 448 403 406 393 _c
_cl}_e}_d
/four{636 0 49 0 580 729 _sc
378 643 _m
129 254 _l
378 254 _l
378 643 _l
352 729 _m
476 729 _l
476 254 _l
580 254 _l
580 172 _l
476 172 _l
476 0 _l
378 0 _l
378 172 _l
49 172 _l
49 267 _l
352 729 _l
_cl}_d
/A{684 0 8 0 676 729 _sc
342 632 _m
208 269 _l
476 269 _l
342 632 _l
286 729 _m
398 729 _l
676 0 _l
573 0 _l
507 187 _l
178 187 _l
112 0 _l
8 0 _l
286 729 _l
_cl}_d
/B{{686 0 98 0 615 729 _sc
197 348 _m
197 81 _l
355 81 _l
408 81 447 92 473 114 _c
498 136 511 169 511 215 _c
511 260 498 293 473 315 _c
447 337 408 348 355 348 _c
197 348 _l
197 648 _m
197 428 _l
343 428 _l
391 428 426 437 450 455 _c
474 473 486 500 486 538 _c
486 574 474 602 450 620 _c
426 638 391 648 343 648 _c
197 648 _l
98 729 _m
350 729 _l
}_e{425 729 483 713 524 682 _c
564 650 585 606 585 549 _c
585 504 574 468 553 442 _c
532 416 502 399 462 393 _c
510 382 548 360 575 327 _c
601 294 615 253 615 204 _c
615 138 592 88 548 53 _c
504 17 441 0 360 0 _c
98 0 _l
98 729 _l
_cl}_e}_d
/C{{698 0 56 -13 644 742 _sc
644 673 _m
644 569 _l
610 599 575 622 537 638 _c
499 653 460 661 418 661 _c
334 661 270 635 226 584 _c
182 533 160 460 160 364 _c
160 268 182 194 226 143 _c
270 92 334 67 418 67 _c
460 67 499 74 537 90 _c
575 105 610 128 644 159 _c
644 56 _l
609 32 572 15 534 4 _c
496 -7 455 -13 412 -13 _c
302 -13 215 20 151 87 _c
}_e{87 154 56 246 56 364 _c
56 481 87 573 151 641 _c
215 708 302 742 412 742 _c
456 742 497 736 535 725 _c
573 713 610 696 644 673 _c
_cl}_e}_d
/D{770 0 98 0 711 729 _sc
197 648 _m
197 81 _l
316 81 _l
416 81 490 103 537 149 _c
583 195 607 267 607 365 _c
607 463 583 534 537 580 _c
490 625 416 648 316 648 _c
197 648 _l
98 729 _m
301 729 _l
442 729 546 699 612 641 _c
678 582 711 490 711 365 _c
711 239 677 147 611 88 _c
545 29 441 0 301 0 _c
98 0 _l
98 729 _l
_cl}_d
/I{295 0 98 0 197 729 _sc
98 729 _m
197 729 _l
197 0 _l
98 0 _l
98 729 _l
_cl}_d
/J{295 0 -51 -199 197 729 _sc
98 729 _m
197 729 _l
197 51 _l
197 -36 180 -99 147 -139 _c
113 -179 60 -199 -13 -199 _c
-51 -199 _l
-51 -116 _l
-20 -116 _l
22 -116 53 -103 71 -79 _c
89 -55 98 -11 98 51 _c
98 729 _l
_cl}_d
/M{863 0 98 0 765 729 _sc
98 729 _m
245 729 _l
431 233 _l
618 729 _l
765 729 _l
765 0 _l
669 0 _l
669 640 _l
481 140 _l
382 140 _l
194 640 _l
194 0 _l
98 0 _l
98 729 _l
_cl}_d
/P{603 0 98 0 569 729 _sc
197 648 _m
197 374 _l
321 374 _l
367 374 402 385 427 409 _c
452 433 465 467 465 511 _c
465 555 452 588 427 612 _c
402 636 367 648 321 648 _c
197 648 _l
98 729 _m
321 729 _l
402 729 464 710 506 673 _c
548 636 569 582 569 511 _c
569 439 548 384 506 348 _c
464 311 402 293 321 293 _c
197 293 _l
197 0 _l
98 0 _l
98 729 _l
_cl}_d
/T{611 0 -2 0 614 729 _sc
-2 729 _m
614 729 _l
614 646 _l
355 646 _l
355 0 _l
256 0 _l
256 646 _l
-2 646 _l
-2 729 _l
_cl}_d
/bracketleft{390 0 86 -131 293 760 _sc
86 760 _m
293 760 _l
293 690 _l
176 690 _l
176 -61 _l
293 -61 _l
293 -131 _l
86 -131 _l
86 760 _l
_cl}_d
/bracketright{390 0 97 -131 304 760 _sc
304 760 _m
304 -131 _l
97 -131 _l
97 -61 _l
214 -61 _l
214 690 _l
97 690 _l
97 760 _l
304 760 _l
_cl}_d
/underscore{500 0 -9 -235 510 -165 _sc
510 -165 _m
510 -235 _l
-9 -235 _l
-9 -165 _l
510 -165 _l
_cl}_d
/a{{613 0 60 -13 522 560 _sc
343 275 _m
270 275 220 266 192 250 _c
164 233 150 205 150 165 _c
150 133 160 107 181 89 _c
202 70 231 61 267 61 _c
317 61 357 78 387 114 _c
417 149 432 196 432 255 _c
432 275 _l
343 275 _l
522 312 _m
522 0 _l
432 0 _l
432 83 _l
411 49 385 25 355 10 _c
325 -5 287 -13 243 -13 _c
187 -13 142 2 109 33 _c
76 64 60 106 60 159 _c
}_e{60 220 80 266 122 298 _c
163 329 224 345 306 345 _c
432 345 _l
432 354 _l
432 395 418 427 391 450 _c
364 472 326 484 277 484 _c
245 484 215 480 185 472 _c
155 464 127 453 100 439 _c
100 522 _l
132 534 164 544 195 550 _c
226 556 256 560 286 560 _c
365 560 424 539 463 498 _c
502 457 522 395 522 312 _c
_cl}_e}_d
/b{{635 0 91 -13 580 760 _sc
487 273 _m
487 339 473 390 446 428 _c
418 466 381 485 334 485 _c
286 485 249 466 222 428 _c
194 390 181 339 181 273 _c
181 207 194 155 222 117 _c
249 79 286 61 334 61 _c
381 61 418 79 446 117 _c
473 155 487 207 487 273 _c
181 464 _m
199 496 223 520 252 536 _c
281 552 316 560 356 560 _c
422 560 476 533 518 481 _c
559 428 580 359 580 273 _c
}_e{580 187 559 117 518 65 _c
476 13 422 -13 356 -13 _c
316 -13 281 -5 252 10 _c
223 25 199 49 181 82 _c
181 0 _l
91 0 _l
91 760 _l
181 760 _l
181 464 _l
_cl}_e}_d
/c{{550 0 55 -13 488 560 _sc
488 526 _m
488 442 _l
462 456 437 466 411 473 _c
385 480 360 484 334 484 _c
276 484 230 465 198 428 _c
166 391 150 339 150 273 _c
150 206 166 154 198 117 _c
230 80 276 62 334 62 _c
360 62 385 65 411 72 _c
437 79 462 90 488 104 _c
488 21 _l
462 9 436 0 410 -5 _c
383 -10 354 -13 324 -13 _c
242 -13 176 12 128 64 _c
}_e{79 115 55 185 55 273 _c
55 362 79 432 128 483 _c
177 534 244 560 330 560 _c
358 560 385 557 411 551 _c
437 545 463 537 488 526 _c
_cl}_e}_d
/d{{635 0 55 -13 544 760 _sc
454 464 _m
454 760 _l
544 760 _l
544 0 _l
454 0 _l
454 82 _l
435 49 411 25 382 10 _c
353 -5 319 -13 279 -13 _c
213 -13 159 13 117 65 _c
75 117 55 187 55 273 _c
55 359 75 428 117 481 _c
159 533 213 560 279 560 _c
319 560 353 552 382 536 _c
411 520 435 496 454 464 _c
148 273 _m
148 207 161 155 188 117 _c
215 79 253 61 301 61 _c
}_e{348 61 385 79 413 117 _c
440 155 454 207 454 273 _c
454 339 440 390 413 428 _c
385 466 348 485 301 485 _c
253 485 215 466 188 428 _c
161 390 148 339 148 273 _c
_cl}_e}_d
/e{{615 0 55 -13 562 560 _sc
562 296 _m
562 252 _l
149 252 _l
153 190 171 142 205 110 _c
238 78 284 62 344 62 _c
378 62 412 66 444 74 _c
476 82 509 95 541 113 _c
541 28 _l
509 14 476 3 442 -3 _c
408 -9 373 -13 339 -13 _c
251 -13 182 12 131 62 _c
80 112 55 181 55 268 _c
55 357 79 428 127 481 _c
175 533 241 560 323 560 _c
397 560 455 536 498 489 _c
}_e{540 441 562 377 562 296 _c
472 322 _m
471 371 457 410 431 440 _c
404 469 368 484 324 484 _c
274 484 234 469 204 441 _c
174 413 156 373 152 322 _c
472 322 _l
_cl}_e}_d
/g{{635 0 55 -207 544 560 _sc
454 280 _m
454 344 440 395 414 431 _c
387 467 349 485 301 485 _c
253 485 215 467 188 431 _c
161 395 148 344 148 280 _c
148 215 161 165 188 129 _c
215 93 253 75 301 75 _c
349 75 387 93 414 129 _c
440 165 454 215 454 280 _c
544 68 _m
544 -24 523 -93 482 -139 _c
440 -184 377 -207 292 -207 _c
260 -207 231 -204 203 -200 _c
175 -195 147 -188 121 -178 _c
}_e{121 -91 _l
147 -105 173 -115 199 -122 _c
225 -129 251 -133 278 -133 _c
336 -133 380 -117 410 -87 _c
439 -56 454 -10 454 52 _c
454 96 _l
435 64 411 40 382 24 _c
353 8 319 0 279 0 _c
211 0 157 25 116 76 _c
75 127 55 195 55 280 _c
55 364 75 432 116 483 _c
157 534 211 560 279 560 _c
319 560 353 552 382 536 _c
411 520 435 496 454 464 _c
454 547 _l
544 547 _l
}_e{544 68 _l
_cl}_e}_d
/h{634 0 91 0 549 760 _sc
549 330 _m
549 0 _l
459 0 _l
459 327 _l
459 379 448 417 428 443 _c
408 469 378 482 338 482 _c
289 482 251 466 223 435 _c
195 404 181 362 181 309 _c
181 0 _l
91 0 _l
91 760 _l
181 760 _l
181 462 _l
202 494 227 519 257 535 _c
286 551 320 560 358 560 _c
420 560 468 540 500 501 _c
532 462 549 405 549 330 _c
_cl}_d
/i{278 0 94 0 184 760 _sc
94 547 _m
184 547 _l
184 0 _l
94 0 _l
94 547 _l
94 760 _m
184 760 _l
184 646 _l
94 646 _l
94 760 _l
_cl}_d
/j{278 0 -17 -207 184 760 _sc
94 547 _m
184 547 _l
184 -9 _l
184 -78 170 -128 144 -160 _c
117 -191 74 -207 16 -207 _c
-17 -207 _l
-17 -131 _l
6 -131 _l
40 -131 63 -123 75 -107 _c
87 -91 94 -58 94 -9 _c
94 547 _l
94 760 _m
184 760 _l
184 646 _l
94 646 _l
94 760 _l
_cl}_d
/k{579 0 91 0 576 760 _sc
91 760 _m
181 760 _l
181 311 _l
449 547 _l
564 547 _l
274 291 _l
576 0 _l
459 0 _l
181 267 _l
181 0 _l
91 0 _l
91 760 _l
_cl}_d
/l{278 0 94 0 184 760 _sc
94 760 _m
184 760 _l
184 0 _l
94 0 _l
94 760 _l
_cl}_d
/m{{974 0 91 0 889 560 _sc
520 442 _m
542 482 569 511 600 531 _c
631 550 668 560 711 560 _c
767 560 811 540 842 500 _c
873 460 889 403 889 330 _c
889 0 _l
799 0 _l
799 327 _l
799 379 789 418 771 444 _c
752 469 724 482 686 482 _c
639 482 602 466 575 435 _c
548 404 535 362 535 309 _c
535 0 _l
445 0 _l
445 327 _l
445 379 435 418 417 444 _c
398 469 369 482 331 482 _c
}_e{285 482 248 466 221 435 _c
194 404 181 362 181 309 _c
181 0 _l
91 0 _l
91 547 _l
181 547 _l
181 462 _l
201 495 226 520 255 536 _c
283 552 317 560 357 560 _c
397 560 430 550 458 530 _c
486 510 506 480 520 442 _c
_cl}_e}_d
/n{634 0 91 0 549 560 _sc
549 330 _m
549 0 _l
459 0 _l
459 327 _l
459 379 448 417 428 443 _c
408 469 378 482 338 482 _c
289 482 251 466 223 435 _c
195 404 181 362 181 309 _c
181 0 _l
91 0 _l
91 547 _l
181 547 _l
181 462 _l
202 494 227 519 257 535 _c
286 551 320 560 358 560 _c
420 560 468 540 500 501 _c
532 462 549 405 549 330 _c
_cl}_d
/o{612 0 55 -13 557 560 _sc
306 484 _m
258 484 220 465 192 427 _c
164 389 150 338 150 273 _c
150 207 163 156 191 118 _c
219 80 257 62 306 62 _c
354 62 392 80 420 118 _c
448 156 462 207 462 273 _c
462 337 448 389 420 427 _c
392 465 354 484 306 484 _c
306 560 _m
384 560 445 534 490 484 _c
534 433 557 363 557 273 _c
557 183 534 113 490 63 _c
445 12 384 -13 306 -13 _c
227 -13 165 12 121 63 _c
77 113 55 183 55 273 _c
55 363 77 433 121 484 _c
165 534 227 560 306 560 _c
_cl}_d
/p{{635 0 91 -207 580 560 _sc
181 82 _m
181 -207 _l
91 -207 _l
91 547 _l
181 547 _l
181 464 _l
199 496 223 520 252 536 _c
281 552 316 560 356 560 _c
422 560 476 533 518 481 _c
559 428 580 359 580 273 _c
580 187 559 117 518 65 _c
476 13 422 -13 356 -13 _c
316 -13 281 -5 252 10 _c
223 25 199 49 181 82 _c
487 273 _m
487 339 473 390 446 428 _c
418 466 381 485 334 485 _c
}_e{286 485 249 466 222 428 _c
194 390 181 339 181 273 _c
181 207 194 155 222 117 _c
249 79 286 61 334 61 _c
381 61 418 79 446 117 _c
473 155 487 207 487 273 _c
_cl}_e}_d
/r{411 0 91 0 411 560 _sc
411 463 _m
401 469 390 473 378 476 _c
366 478 353 480 339 480 _c
288 480 249 463 222 430 _c
194 397 181 350 181 288 _c
181 0 _l
91 0 _l
91 547 _l
181 547 _l
181 462 _l
199 495 224 520 254 536 _c
284 552 321 560 365 560 _c
371 560 378 559 386 559 _c
393 558 401 557 411 555 _c
411 463 _l
_cl}_d
/s{{521 0 54 -13 472 560 _sc
443 531 _m
443 446 _l
417 458 391 468 364 475 _c
336 481 308 485 279 485 _c
234 485 200 478 178 464 _c
156 450 145 430 145 403 _c
145 382 153 366 169 354 _c
185 342 217 330 265 320 _c
296 313 _l
360 299 405 279 432 255 _c
458 230 472 195 472 151 _c
472 100 452 60 412 31 _c
372 1 316 -13 246 -13 _c
216 -13 186 -10 154 -5 _c
}_e{122 0 89 8 54 20 _c
54 113 _l
87 95 120 82 152 74 _c
184 65 216 61 248 61 _c
290 61 323 68 346 82 _c
368 96 380 117 380 144 _c
380 168 371 187 355 200 _c
339 213 303 226 247 238 _c
216 245 _l
160 257 119 275 95 299 _c
70 323 58 356 58 399 _c
58 450 76 490 112 518 _c
148 546 200 560 268 560 _c
301 560 332 557 362 552 _c
391 547 418 540 443 531 _c
}_e{_cl}_e}_d
/t{392 0 27 0 368 702 _sc
183 702 _m
183 547 _l
368 547 _l
368 477 _l
183 477 _l
183 180 _l
183 135 189 106 201 94 _c
213 81 238 75 276 75 _c
368 75 _l
368 0 _l
276 0 _l
206 0 158 13 132 39 _c
106 65 93 112 93 180 _c
93 477 _l
27 477 _l
27 547 _l
93 547 _l
93 702 _l
183 702 _l
_cl}_d
/u{634 0 85 -13 543 560 _sc
85 216 _m
85 547 _l
175 547 _l
175 219 _l
175 167 185 129 205 103 _c
225 77 255 64 296 64 _c
344 64 383 79 411 110 _c
439 141 453 183 453 237 _c
453 547 _l
543 547 _l
543 0 _l
453 0 _l
453 84 _l
431 50 405 26 377 10 _c
348 -5 315 -13 277 -13 _c
214 -13 166 6 134 45 _c
101 83 85 140 85 216 _c
311 560 _m
311 560 _l
_cl}_d
/v{592 0 30 0 562 547 _sc
30 547 _m
125 547 _l
296 88 _l
467 547 _l
562 547 _l
357 0 _l
235 0 _l
30 547 _l
_cl}_d
/y{592 0 30 -207 562 547 _sc
322 -50 _m
296 -114 271 -157 247 -177 _c
223 -197 191 -207 151 -207 _c
79 -207 _l
79 -132 _l
132 -132 _l
156 -132 175 -126 189 -114 _c
203 -102 218 -75 235 -31 _c
251 9 _l
30 547 _l
125 547 _l
296 119 _l
467 547 _l
562 547 _l
322 -50 _l
_cl}_d
/minus{838 0 106 272 732 355 _sc
106 355 _m
732 355 _l
732 272 _l
106 272 _l
106 355 _l
_cl}_d
end readonly def

/BuildGlyph
 {exch begin
 CharStrings exch
 2 copy known not{pop /.notdef}if
 true 3 1 roll get exec
 end}_d

/BuildChar {
 1 index /Encoding get exch get
 1 index /BuildGlyph get exec
}_d

FontName currentdict end definefont pop
end
%%EndProlog
mpldict begin
-54 -36 translate
720 864 0 0 clipbox
gsave
0 0 m
720 0 l
720 864 l
0 864 l
cl
1.000 setgray
fill
grestore
gsave
90 108 m
648 108 l
648 760.32 l
90 760.32 l
cl
1.000 setgray
fill
grestore
gsave
558 652.3 90 108 clipbox
596.398934 119.648571 m
581.010174 119.648571 l
581.010174 125.472857 l
596.398934 125.472857 l
cl
0.000 0.447 0.698 setrgbcolor
fill
grestore
gsave
558 652.3 90 108 clipbox
596.398934 166.242857 m
540.419263 166.242857 l
540.419263 172.067143 l
596.398934 172.067143 l
cl
0.000 0.447 0.698 setrgbcolor
fill
grestore
gsave
558 652.3 90 108 clipbox
596.398934 212.837143 m
552.731869 212.837143 l
552.731869 218.661429 l
596.398934 218.661429 l
cl
0.000 0.447 0.698 setrgbcolor
fill
grestore
gsave
558 652.3 90 108 clipbox
596.398934 259.431429 m
543.307848 259.431429 l
543.307848 265.255714 l
596.398934 265.255714 l
cl
0.000 0.447 0.698 setrgbcolor
fill
grestore
gsave
558 652.3 90 108 clipbox
596.398934 306.025714 m
579.641143 306.025714 l
579.641143 311.85 l
596.398934 311.85 l
cl
0.000 0.447 0.698 setrgbcolor
fill
grestore
gsave
558 652.3 90 108 clipbox
596.398934 352.62 m
584.541998 352.62 l
584.541998 358.444286 l
596.398934 358.444286 l
cl
0.000 0.447 0.698 setrgbcolor
fill
grestore
gsave
558 652.3 90 108 clipbox
596.398934 399.214286 m
612.893538 399.214286 l
612.893538 405.038571 l
596.398934 405.038571 l
cl
0.000 0.447 0.698 setrgbcolor
fill
grestore
gsave
558 652.3 90 108 clipbox
596.398934 445.808571 m
366.357485 445.808571 l
366.357485 451.632857 l
596.398934 451.632857 l
cl
0.000 0.447 0.698 setrgbcolor
fill
grestore
gsave
558 652.3 90 108 clipbox
596.398934 492.402857 m
116.578752 492.402857 l
116.578752 498.227143 l
596.398934 498.227143 l
cl
0.000 0.447 0.698 setrgbcolor
fill
grestore
gsave
558 652.3 90 108 clipbox
596.398934 538.997143 m
612.102867 538.997143 l
612.102867 544.821429 l
596.398934 544.821429 l
cl
0.000 0.447 0.698 setrgbcolor
fill
grestore
gsave
558 652.3 90 108 clipbox
596.398934 585.591429 m
613.304203 585.591429 l
613.304203 591.415714 l
596.398934 591.415714 l
cl
0.000 0.447 0.698 setrgbcolor
fill
grestore
gsave
558 652.3 90 108 clipbox
596.398934 632.185714 m
619.725593 632.185714 l
619.725593 638.01 l
596.398934 638.01 l
cl
0.000 0.447 0.698 setrgbcolor
fill
grestore
gsave
558 652.3 90 108 clipbox
596.398934 678.78 m
619.585213 678.78 l
619.585213 684.604286 l
596.398934 684.604286 l
cl
0.000 0.447 0.698 setrgbcolor
fill
grestore
gsave
558 652.3 90 108 clipbox
596.398934 725.374286 m
622.113659 725.374286 l
622.113659 731.198571 l
596.398934 731.198571 l
cl
0.000 0.447 0.698 setrgbcolor
fill
grestore
gsave
558 652.3 90 108 clipbox
596.398934 125.472857 m
588.667819 125.472857 l
588.667819 131.297143 l
596.398934 131.297143 l
cl
0.000 0.620 0.451 setrgbcolor
fill
grestore
gsave
558 652.3 90 108 clipbox
596.398934 172.067143 m
563.827364 172.067143 l
563.827364 177.891429 l
596.398934 177.891429 l
cl
0.000 0.620 0.451 setrgbcolor
fill
grestore
gsave
558 652.3 90 108 clipbox
596.398934 218.661429 m
593.290142 218.661429 l
593.290142 224.485714 l
596.398934 224.485714 l
cl
0.000 0.620 0.451 setrgbcolor
fill
grestore
gsave
558 652.3 90 108 clipbox
596.398934 265.255714 m
575.479329 265.255714 l
575.479329 271.08 l
596.398934 271.08 l
cl
0.000 0.620 0.451 setrgbcolor
fill
grestore
gsave
558 652.3 90 108 clipbox
596.398934 311.85 m
592.511362 311.85 l
592.511362 317.674286 l
596.398934 317.674286 l
cl
0.000 0.620 0.451 setrgbcolor
fill
grestore
gsave
558 652.3 90 108 clipbox
596.398934 358.444286 m
594.075098 358.444286 l
594.075098 364.268571 l
596.398934 364.268571 l
cl
0.000 0.620 0.451 setrgbcolor
fill
grestore
gsave
558 652.3 90 108 clipbox
596.398934 405.038571 m
601.79264 405.038571 l
601.79264 410.862857 l
596.398934 410.862857 l
cl
0.000 0.620 0.451 setrgbcolor
fill
grestore
gsave
558 652.3 90 108 clipbox
596.398934 451.632857 m
531.538991 451.632857 l
531.538991 457.457143 l
596.398934 457.457143 l
cl
0.000 0.620 0.451 setrgbcolor
fill
grestore
gsave
558 652.3 90 108 clipbox
596.398934 498.227143 m
459.452895 498.227143 l
459.452895 504.051429 l
596.398934 504.051429 l
cl
0.000 0.620 0.451 setrgbcolor
fill
grestore
gsave
558 652.3 90 108 clipbox
596.398934 544.821429 m
607.509786 544.821429 l
607.509786 550.645714 l
596.398934 550.645714 l
cl
0.000 0.620 0.451 setrgbcolor
fill
grestore
gsave
558 652.3 90 108 clipbox
596.398934 591.415714 m
607.493744 591.415714 l
607.493744 597.24 l
596.398934 597.24 l
cl
0.000 0.620 0.451 setrgbcolor
fill
grestore
gsave
558 652.3 90 108 clipbox
596.398934 638.01 m
600.403942 638.01 l
600.403942 643.834286 l
596.398934 643.834286 l
cl
0.000 0.620 0.451 setrgbcolor
fill
grestore
gsave
558 652.3 90 108 clipbox
596.398934 684.604286 m
600.596145 684.604286 l
600.596145 690.428571 l
596.398934 690.428571 l
cl
0.000 0.620 0.451 setrgbcolor
fill
grestore
gsave
558 652.3 90 108 clipbox
596.398934 731.198571 m
592.018191 731.198571 l
592.018191 737.022857 l
596.398934 737.022857 l
cl
0.000 0.620 0.451 setrgbcolor
fill
grestore
gsave
558 652.3 90 108 clipbox
596.398934 131.297143 m
596.122287 131.297143 l
596.122287 137.121429 l
596.398934 137.121429 l
cl
0.835 0.369 0.000 setrgbcolor
fill
grestore
gsave
558 652.3 90 108 clipbox
596.398934 177.891429 m
546.765055 177.891429 l
546.765055 183.715714 l
596.398934 183.715714 l
cl
0.835 0.369 0.000 setrgbcolor
fill
grestore
gsave
558 652.3 90 108 clipbox
596.398934 224.485714 m
596.324895 224.485714 l
596.324895 230.31 l
596.398934 230.31 l
cl
0.835 0.369 0.000 setrgbcolor
fill
grestore
gsave
558 652.3 90 108 clipbox
596.398934 271.08 m
579.812614 271.08 l
579.812614 276.904286 l
596.398934 276.904286 l
cl
0.835 0.369 0.000 setrgbcolor
fill
grestore
gsave
558 652.3 90 108 clipbox
596.398934 317.674286 m
592.606143 317.674286 l
592.606143 323.498571 l
596.398934 323.498571 l
cl
0.835 0.369 0.000 setrgbcolor
fill
grestore
gsave
558 652.3 90 108 clipbox
596.398934 364.268571 m
593.683421 364.268571 l
593.683421 370.092857 l
596.398934 370.092857 l
cl
0.835 0.369 0.000 setrgbcolor
fill
grestore
gsave
558 652.3 90 108 clipbox
596.398934 410.862857 m
600.115744 410.862857 l
600.115744 416.687143 l
596.398934 416.687143 l
cl
0.835 0.369 0.000 setrgbcolor
fill
grestore
gsave
558 652.3 90 108 clipbox
596.398934 457.457143 m
556.152891 457.457143 l
556.152891 463.281429 l
596.398934 463.281429 l
cl
0.835 0.369 0.000 setrgbcolor
fill
grestore
gsave
558 652.3 90 108 clipbox
596.398934 504.051429 m
451.904271 504.051429 l
451.904271 509.875714 l
596.398934 509.875714 l
cl
0.835 0.369 0.000 setrgbcolor
fill
grestore
gsave
558 652.3 90 108 clipbox
596.398934 550.645714 m
599.075936 550.645714 l
599.075936 556.47 l
596.398934 556.47 l
cl
0.835 0.369 0.000 setrgbcolor
fill
grestore
gsave
558 652.3 90 108 clipbox
596.398934 597.24 m
599.265655 597.24 l
599.265655 603.064286 l
596.398934 603.064286 l
cl
0.835 0.369 0.000 setrgbcolor
fill
grestore
gsave
558 652.3 90 108 clipbox
596.398934 643.834286 m
604.266865 643.834286 l
604.266865 649.658571 l
596.398934 649.658571 l
cl
0.835 0.369 0.000 setrgbcolor
fill
grestore
gsave
558 652.3 90 108 clipbox
596.398934 690.428571 m
604.286695 690.428571 l
604.286695 696.252857 l
596.398934 696.252857 l
cl
0.835 0.369 0.000 setrgbcolor
fill
grestore
gsave
558 652.3 90 108 clipbox
596.398934 737.022857 m
588.79065 737.022857 l
588.79065 742.847143 l
596.398934 742.847143 l
cl
0.835 0.369 0.000 setrgbcolor
fill
grestore
gsave
558 652.3 90 108 clipbox
596.398934 137.121429 m
591.385773 137.121429 l
591.385773 142.945714 l
596.398934 142.945714 l
cl
0.800 0.475 0.655 setrgbcolor
fill
grestore
gsave
558 652.3 90 108 clipbox
596.398934 183.715714 m
486.784732 183.715714 l
486.784732 189.54 l
596.398934 189.54 l
cl
0.800 0.475 0.655 setrgbcolor
fill
grestore
gsave
558 652.3 90 108 clipbox
596.398934 230.31 m
566.531974 230.31 l
566.531974 236.134286 l
596.398934 236.134286 l
cl
0.800 0.475 0.655 setrgbcolor
fill
grestore
gsave
558 652.3 90 108 clipbox
596.398934 276.904286 m
585.276119 276.904286 l
585.276119 282.728571 l
596.398934 282.728571 l
cl
0.800 0.475 0.655 setrgbcolor
fill
grestore
gsave
558 652.3 90 108 clipbox
596.398934 323.498571 m
589.254085 323.498571 l
589.254085 329.322857 l
596.398934 329.322857 l
cl
0.800 0.475 0.655 setrgbcolor
fill
grestore
gsave
558 652.3 90 108 clipbox
596.398934 370.092857 m
591.961736 370.092857 l
591.961736 375.917143 l
596.398934 375.917143 l
cl
0.800 0.475 0.655 setrgbcolor
fill
grestore
gsave
558 652.3 90 108 clipbox
596.398934 416.687143 m
605.601603 416.687143 l
605.601603 422.511429 l
596.398934 422.511429 l
cl
0.800 0.475 0.655 setrgbcolor
fill
grestore
gsave
558 652.3 90 108 clipbox
596.398934 463.281429 m
556.05953 463.281429 l
556.05953 469.105714 l
596.398934 469.105714 l
cl
0.800 0.475 0.655 setrgbcolor
fill
grestore
gsave
558 652.3 90 108 clipbox
596.398934 509.875714 m
293.701315 509.875714 l
293.701315 515.7 l
596.398934 515.7 l
cl
0.800 0.475 0.655 setrgbcolor
fill
grestore
gsave
558 652.3 90 108 clipbox
596.398934 556.47 m
591.75913 556.47 l
591.75913 562.294286 l
596.398934 562.294286 l
cl
0.800 0.475 0.655 setrgbcolor
fill
grestore
gsave
558 652.3 90 108 clipbox
596.398934 603.064286 m
592.240603 603.064286 l
592.240603 608.888571 l
596.398934 608.888571 l
cl
0.800 0.475 0.655 setrgbcolor
fill
grestore
gsave
558 652.3 90 108 clipbox
596.398934 649.658571 m
583.223118 649.658571 l
583.223118 655.482857 l
596.398934 655.482857 l
cl
0.800 0.475 0.655 setrgbcolor
fill
grestore
gsave
558 652.3 90 108 clipbox
596.398934 696.252857 m
583.627293 696.252857 l
583.627293 702.077143 l
596.398934 702.077143 l
cl
0.800 0.475 0.655 setrgbcolor
fill
grestore
gsave
558 652.3 90 108 clipbox
596.398934 742.847143 m
599.43747 742.847143 l
599.43747 748.671429 l
596.398934 748.671429 l
cl
0.800 0.475 0.655 setrgbcolor
fill
grestore
0.800 setlinewidth
1 setlinejoin
0 setlinecap
[] 0 setdash
0.000 setgray
gsave
/o {
gsave
newpath
translate
0.8 setlinewidth
1 setlinejoin
0 setlinecap
0 0 m
0 -3.5 l

gsave
0.000 setgray
fill
grestore
stroke
grestore
} bind def
188.912 108 o
grestore
/DejaVuSans findfont
10.000 scalefont
setfont
gsave
176.771577 93.406250 translate
0.000000 rotate
0.000000 0.000000 m /minus glyphshow
8.378906 0.000000 m /zero glyphshow
14.741211 0.000000 m /period glyphshow
17.919922 0.000000 m /four glyphshow
grestore
gsave
/o {
gsave
newpath
translate
0.8 setlinewidth
1 setlinejoin
0 setlinecap
0 0 m
0 -3.5 l

gsave
0.000 setgray
fill
grestore
stroke
grestore
} bind def
290.784 108 o
grestore
gsave
278.643260 93.406250 translate
0.000000 rotate
0.000000 0.000000 m /minus glyphshow
8.378906 0.000000 m /zero glyphshow
14.741211 0.000000 m /period glyphshow
17.919922 0.000000 m /three glyphshow
grestore
gsave
/o {
gsave
newpath
translate
0.8 setlinewidth
1 setlinejoin
0 setlinecap
0 0 m
0 -3.5 l

gsave
0.000 setgray
fill
grestore
stroke
grestore
} bind def
392.656 108 o
grestore
gsave
380.514943 93.406250 translate
0.000000 rotate
0.000000 0.000000 m /minus glyphshow
8.378906 0.000000 m /zero glyphshow
14.741211 0.000000 m /period glyphshow
17.919922 0.000000 m /two glyphshow
grestore
gsave
/o {
gsave
newpath
translate
0.8 setlinewidth
1 setlinejoin
0 setlinecap
0 0 m
0 -3.5 l

gsave
0.000 setgray
fill
grestore
stroke
grestore
} bind def
494.527 108 o
grestore
gsave
482.386626 93.406250 translate
0.000000 rotate
0.000000 0.000000 m /minus glyphshow
8.378906 0.000000 m /zero glyphshow
14.741211 0.000000 m /period glyphshow
17.919922 0.000000 m /one glyphshow
grestore
gsave
/o {
gsave
newpath
translate
0.8 setlinewidth
1 setlinejoin
0 setlinecap
0 0 m
0 -3.5 l

gsave
0.000 setgray
fill
grestore
stroke
grestore
} bind def
596.399 108 o
grestore
gsave
588.445809 93.406250 translate
0.000000 rotate
0.000000 0.000000 m /zero glyphshow
6.362305 0.000000 m /period glyphshow
9.541016 0.000000 m /zero glyphshow
grestore
gsave
/o {
gsave
newpath
translate
0.8 setlinewidth
1 setlinejoin
0 setlinecap
0 0 m
-3.5 0 l

gsave
0.000 setgray
fill
grestore
stroke
grestore
} bind def
90 131.297 o
grestore
gsave
28.500000 127.500268 translate
0.000000 rotate
0.000000 0.000000 m /B glyphshow
6.860352 0.000000 m /l glyphshow
9.638672 0.000000 m /o glyphshow
15.756836 0.000000 m /c glyphshow
21.254883 0.000000 m /k glyphshow
27.045898 0.000000 m /underscore glyphshow
32.045898 0.000000 m /n glyphshow
38.383789 0.000000 m /u glyphshow
44.721680 0.000000 m /m glyphshow
grestore
gsave
/o {
gsave
newpath
translate
0.8 setlinewidth
1 setlinejoin
0 setlinecap
0 0 m
-3.5 0 l

gsave
0.000 setgray
fill
grestore
stroke
grestore
} bind def
90 177.891 o
grestore
gsave
39.187500 174.094554 translate
0.000000 rotate
0.000000 0.000000 m /C glyphshow
6.982422 0.000000 m /o glyphshow
13.100586 0.000000 m /h glyphshow
19.438477 0.000000 m /underscore glyphshow
24.438477 0.000000 m /p glyphshow
30.786133 0.000000 m /r glyphshow
34.897461 0.000000 m /o glyphshow
41.015625 0.000000 m /j glyphshow
grestore
gsave
/o {
gsave
newpath
translate
0.8 setlinewidth
1 setlinejoin
0 setlinecap
0 0 m
-3.5 0 l

gsave
0.000 setgray
fill
grestore
stroke
grestore
} bind def
90 224.486 o
grestore
gsave
49.093750 220.688839 translate
0.000000 rotate
0.000000 0.000000 m /D glyphshow
7.700195 0.000000 m /e glyphshow
13.852539 0.000000 m /l glyphshow
16.630859 0.000000 m /a glyphshow
22.758789 0.000000 m /y glyphshow
28.676758 0.000000 m /s glyphshow
grestore
gsave
/o {
gsave
newpath
translate
0.8 setlinewidth
1 setlinejoin
0 setlinecap
0 0 m
-3.5 0 l

gsave
0.000 setgray
fill
grestore
stroke
grestore
} bind def
90 271.08 o
grestore
gsave
39.250000 267.283125 translate
0.000000 rotate
0.000000 0.000000 m /D glyphshow
7.700195 0.000000 m /i glyphshow
10.478516 0.000000 m /s glyphshow
15.688477 0.000000 m /t glyphshow
19.609375 0.000000 m /a glyphshow
25.737305 0.000000 m /n glyphshow
32.075195 0.000000 m /c glyphshow
37.573242 0.000000 m /e glyphshow
grestore
gsave
/o {
gsave
newpath
translate
0.8 setlinewidth
1 setlinejoin
0 setlinecap
0 0 m
-3.5 0 l

gsave
0.000 setgray
fill
grestore
stroke
grestore
} bind def
90 317.674 o
grestore
gsave
6.000000 313.877411 translate
0.000000 rotate
0.000000 0.000000 m /D glyphshow
7.700195 0.000000 m /i glyphshow
10.478516 0.000000 m /s glyphshow
15.688477 0.000000 m /t glyphshow
19.609375 0.000000 m /a glyphshow
25.737305 0.000000 m /n glyphshow
32.075195 0.000000 m /c glyphshow
37.573242 0.000000 m /e glyphshow
43.725586 0.000000 m /underscore glyphshow
48.725586 0.000000 m /t glyphshow
52.646484 0.000000 m /o glyphshow
58.764648 0.000000 m /underscore glyphshow
63.764648 0.000000 m /A glyphshow
70.605469 0.000000 m /one glyphshow
grestore
gsave
/o {
gsave
newpath
translate
0.8 setlinewidth
1 setlinejoin
0 setlinecap
0 0 m
-3.5 0 l

gsave
0.000 setgray
fill
grestore
stroke
grestore
} bind def
90 364.269 o
grestore
gsave
6.000000 360.471696 translate
0.000000 rotate
0.000000 0.000000 m /D glyphshow
7.700195 0.000000 m /i glyphshow
10.478516 0.000000 m /s glyphshow
15.688477 0.000000 m /t glyphshow
19.609375 0.000000 m /a glyphshow
25.737305 0.000000 m /n glyphshow
32.075195 0.000000 m /c glyphshow
37.573242 0.000000 m /e glyphshow
43.725586 0.000000 m /underscore glyphshow
48.725586 0.000000 m /t glyphshow
52.646484 0.000000 m /o glyphshow
58.764648 0.000000 m /underscore glyphshow
63.764648 0.000000 m /A glyphshow
70.605469 0.000000 m /two glyphshow
grestore
gsave
/o {
gsave
newpath
translate
0.8 setlinewidth
1 setlinejoin
0 setlinecap
0 0 m
-3.5 0 l

gsave
0.000 setgray
fill
grestore
stroke
grestore
} bind def
90 410.863 o
grestore
gsave
5.984375 407.065982 translate
0.000000 rotate
0.000000 0.000000 m /D glyphshow
7.700195 0.000000 m /i glyphshow
10.478516 0.000000 m /s glyphshow
15.688477 0.000000 m /t glyphshow
19.609375 0.000000 m /a glyphshow
25.737305 0.000000 m /n glyphshow
32.075195 0.000000 m /c glyphshow
37.573242 0.000000 m /e glyphshow
43.725586 0.000000 m /underscore glyphshow
48.725586 0.000000 m /t glyphshow
52.646484 0.000000 m /o glyphshow
58.764648 0.000000 m /underscore glyphshow
63.764648 0.000000 m /B glyphshow
70.625000 0.000000 m /one glyphshow
grestore
gsave
/o {
gsave
newpath
translate
0.8 setlinewidth
1 setlinejoin
0 setlinecap
0 0 m
-3.5 0 l

gsave
0.000 setgray
fill
grestore
stroke
grestore
} bind def
90 457.457 o
grestore
gsave
32.343750 453.660268 translate
0.000000 rotate
0.000000 0.000000 m /I glyphshow
2.949219 0.000000 m /n glyphshow
9.287109 0.000000 m /i glyphshow
12.065430 0.000000 m /t glyphshow
15.986328 0.000000 m /i glyphshow
18.764648 0.000000 m /a glyphshow
24.892578 0.000000 m /l glyphshow
27.670898 0.000000 m /underscore glyphshow
32.670898 0.000000 m /c glyphshow
38.168945 0.000000 m /o glyphshow
44.287109 0.000000 m /h glyphshow
grestore
gsave
/o {
gsave
newpath
translate
0.8 setlinewidth
1 setlinejoin
0 setlinecap
0 0 m
-3.5 0 l

gsave
0.000 setgray
fill
grestore
stroke
grestore
} bind def
90 504.051 o
grestore
gsave
18.765625 500.254554 translate
0.000000 rotate
0.000000 0.000000 m /M glyphshow
8.627930 0.000000 m /o glyphshow
14.746094 0.000000 m /n glyphshow
21.083984 0.000000 m /k glyphshow
26.875000 0.000000 m /e glyphshow
33.027344 0.000000 m /y glyphshow
38.945312 0.000000 m /s glyphshow
44.155273 0.000000 m /bracketleft glyphshow
48.056641 0.000000 m /T glyphshow
54.149414 0.000000 m /period glyphshow
57.328125 0.000000 m /J glyphshow
60.277344 0.000000 m /bracketright glyphshow
grestore
gsave
/o {
gsave
newpath
translate
0.8 setlinewidth
1 setlinejoin
0 setlinecap
0 0 m
-3.5 0 l

gsave
0.000 setgray
fill
grestore
stroke
grestore
} bind def
90 550.646 o
grestore
gsave
57.500000 546.848839 translate
0.000000 rotate
0.000000 0.000000 m /P glyphshow
6.030273 0.000000 m /C glyphshow
13.012695 0.000000 m /one glyphshow
19.375000 0.000000 m /a glyphshow
grestore
gsave
/o {
gsave
newpath
translate
0.8 setlinewidth
1 setlinejoin
0 setlinecap
0 0 m
-3.5 0 l

gsave
0.000 setgray
fill
grestore
stroke
grestore
} bind def
90 597.24 o
grestore
gsave
57.281250 593.443125 translate
0.000000 rotate
0.000000 0.000000 m /P glyphshow
6.030273 0.000000 m /C glyphshow
13.012695 0.000000 m /one glyphshow
19.375000 0.000000 m /b glyphshow
grestore
gsave
/o {
gsave
newpath
translate
0.8 setlinewidth
1 setlinejoin
0 setlinecap
0 0 m
-3.5 0 l

gsave
0.000 setgray
fill
grestore
stroke
grestore
} bind def
90 643.834 o
grestore
gsave
57.500000 640.037411 translate
0.000000 rotate
0.000000 0.000000 m /P glyphshow
6.030273 0.000000 m /C glyphshow
13.012695 0.000000 m /two glyphshow
19.375000 0.000000 m /a glyphshow
grestore
gsave
/o {
gsave
newpath
translate
0.8 setlinewidth
1 setlinejoin
0 setlinecap
0 0 m
-3.5 0 l

gsave
0.000 setgray
fill
grestore
stroke
grestore
} bind def
90 690.429 o
grestore
gsave
57.281250 686.631696 translate
0.000000 rotate
0.000000 0.000000 m /P glyphshow
6.030273 0.000000 m /C glyphshow
13.012695 0.000000 m /two glyphshow
19.375000 0.000000 m /b glyphshow
grestore
gsave
/o {
gsave
newpath
translate
0.8 setlinewidth
1 setlinejoin
0 setlinecap
0 0 m
-3.5 0 l

gsave
0.000 setgray
fill
grestore
stroke
grestore
} bind def
90 737.023 o
grestore
gsave
53.125000 733.225982 translate
0.000000 rotate
0.000000 0.000000 m /P glyphshow
6.030273 0.000000 m /h glyphshow
12.368164 0.000000 m /a glyphshow
18.496094 0.000000 m /s glyphshow
23.706055 0.000000 m /e glyphshow
grestore
gsave
-0.093750 411.894375 translate
90.000000 rotate
0.000000 0.000000 m /v glyphshow
5.917969 0.000000 m /a glyphshow
12.045898 0.000000 m /r glyphshow
16.157227 0.000000 m /n glyphshow
22.495117 0.000000 m /a glyphshow
28.623047 0.000000 m /m glyphshow
38.364258 0.000000 m /e glyphshow
grestore
1.500 setlinewidth
gsave
558 652.3 90 108 clipbox
580.674339 122.560714 m
581.346009 122.560714 l
stroke
grestore
gsave
558 652.3 90 108 clipbox
539.456166 169.155 m
541.382359 169.155 l
stroke
grestore
gsave
558 652.3 90 108 clipbox
552.242845 215.749286 m
553.220894 215.749286 l
stroke
grestore
gsave
558 652.3 90 108 clipbox
542.750855 262.343571 m
543.864841 262.343571 l
stroke
grestore
gsave
558 652.3 90 108 clipbox
579.132938 308.937857 m
580.149348 308.937857 l
stroke
grestore
gsave
558 652.3 90 108 clipbox
584.051405 355.532143 m
585.032591 355.532143 l
stroke
grestore
gsave
558 652.3 90 108 clipbox
612.367797 402.126429 m
613.419278 402.126429 l
stroke
grestore
gsave
558 652.3 90 108 clipbox
365.394011 448.720714 m
367.320958 448.720714 l
stroke
grestore
gsave
558 652.3 90 108 clipbox
115.363636 495.315 m
117.793867 495.315 l
stroke
grestore
gsave
558 652.3 90 108 clipbox
611.604188 541.909286 m
612.601546 541.909286 l
stroke
grestore
gsave
558 652.3 90 108 clipbox
612.806477 588.503571 m
613.801929 588.503571 l
stroke
grestore
gsave
558 652.3 90 108 clipbox
619.216924 635.097857 m
620.234261 635.097857 l
stroke
grestore
gsave
558 652.3 90 108 clipbox
619.076652 681.692143 m
620.093775 681.692143 l
stroke
grestore
gsave
558 652.3 90 108 clipbox
621.590955 728.286429 m
622.636364 728.286429 l
stroke
grestore
gsave
558 652.3 90 108 clipbox
588.543158 128.385 m
588.79248 128.385 l
stroke
grestore
gsave
558 652.3 90 108 clipbox
563.415521 174.979286 m
564.239208 174.979286 l
stroke
grestore
gsave
558 652.3 90 108 clipbox
593.108333 221.573571 m
593.471951 221.573571 l
stroke
grestore
gsave
558 652.3 90 108 clipbox
575.264526 268.167857 m
575.694131 268.167857 l
stroke
grestore
gsave
558 652.3 90 108 clipbox
592.321661 314.762143 m
592.701062 314.762143 l
stroke
grestore
gsave
558 652.3 90 108 clipbox
593.891703 361.356429 m
594.258493 361.356429 l
stroke
grestore
gsave
558 652.3 90 108 clipbox
601.597015 407.950714 m
601.988266 407.950714 l
stroke
grestore
gsave
558 652.3 90 108 clipbox
531.167686 454.545 m
531.910296 454.545 l
stroke
grestore
gsave
558 652.3 90 108 clipbox
458.893663 501.139286 m
460.012127 501.139286 l
stroke
grestore
gsave
558 652.3 90 108 clipbox
607.328107 547.733571 m
607.691464 547.733571 l
stroke
grestore
gsave
558 652.3 90 108 clipbox
607.312077 594.327857 m
607.675411 594.327857 l
stroke
grestore
gsave
558 652.3 90 108 clipbox
600.217441 640.922143 m
600.590444 640.922143 l
stroke
grestore
gsave
558 652.3 90 108 clipbox
600.409506 687.516429 m
600.782784 687.516429 l
stroke
grestore
gsave
558 652.3 90 108 clipbox
591.827379 734.110714 m
592.209004 734.110714 l
stroke
grestore
gsave
558 652.3 90 108 clipbox
596.003952 134.209286 m
596.240622 134.209286 l
stroke
grestore
gsave
558 652.3 90 108 clipbox
546.409532 180.803571 m
547.120578 180.803571 l
stroke
grestore
gsave
558 652.3 90 108 clipbox
596.152366 227.397857 m
596.497425 227.397857 l
stroke
grestore
gsave
558 652.3 90 108 clipbox
579.606617 273.992143 m
580.01861 273.992143 l
stroke
grestore
gsave
558 652.3 90 108 clipbox
592.425824 320.586429 m
592.786463 320.586429 l
stroke
grestore
gsave
558 652.3 90 108 clipbox
593.508978 367.180714 m
593.857864 367.180714 l
stroke
grestore
gsave
558 652.3 90 108 clipbox
599.929644 413.775 m
600.301845 413.775 l
stroke
grestore
gsave
558 652.3 90 108 clipbox
555.809038 460.369286 m
556.496743 460.369286 l
stroke
grestore
gsave
558 652.3 90 108 clipbox
451.401038 506.963571 m
452.407504 506.963571 l
stroke
grestore
gsave
558 652.3 90 108 clipbox
598.906574 553.557857 m
599.245298 553.557857 l
stroke
grestore
gsave
558 652.3 90 108 clipbox
599.096265 600.152143 m
599.435046 600.152143 l
stroke
grestore
gsave
558 652.3 90 108 clipbox
604.092867 646.746429 m
604.440862 646.746429 l
stroke
grestore
gsave
558 652.3 90 108 clipbox
604.112681 693.340714 m
604.460709 693.340714 l
stroke
grestore
gsave
558 652.3 90 108 clipbox
588.60013 739.935 m
588.981171 739.935 l
stroke
grestore
gsave
558 652.3 90 108 clipbox
591.228065 140.033571 m
591.543481 140.033571 l
stroke
grestore
gsave
558 652.3 90 108 clipbox
486.393344 186.627857 m
487.17612 186.627857 l
stroke
grestore
gsave
558 652.3 90 108 clipbox
566.301742 233.222143 m
566.762206 233.222143 l
stroke
grestore
gsave
558 652.3 90 108 clipbox
585.010624 279.816429 m
585.541614 279.816429 l
stroke
grestore
gsave
558 652.3 90 108 clipbox
589.012644 326.410714 m
589.495525 326.410714 l
stroke
grestore
gsave
558 652.3 90 108 clipbox
591.728183 373.005 m
592.19529 373.005 l
stroke
grestore
gsave
558 652.3 90 108 clipbox
605.353073 419.599286 m
605.850133 419.599286 l
stroke
grestore
gsave
558 652.3 90 108 clipbox
555.658095 466.193571 m
556.460965 466.193571 l
stroke
grestore
gsave
558 652.3 90 108 clipbox
293.153997 512.787857 m
294.248634 512.787857 l
stroke
grestore
gsave
558 652.3 90 108 clipbox
591.53043 559.382143 m
591.987831 559.382143 l
stroke
grestore
gsave
558 652.3 90 108 clipbox
592.012273 605.976429 m
592.468933 605.976429 l
stroke
grestore
gsave
558 652.3 90 108 clipbox
582.992668 652.570714 m
583.453567 652.570714 l
stroke
grestore
gsave
558 652.3 90 108 clipbox
583.396808 699.165 m
583.857778 699.165 l
stroke
grestore
gsave
558 652.3 90 108 clipbox
599.198186 745.759286 m
599.676755 745.759286 l
stroke
grestore
0.800 setlinewidth
0 setlinejoin
2 setlinecap
[] 0 setdash
gsave
90 108 m
90 760.32 l
stroke
grestore
gsave
648 108 m
648 760.32 l
stroke
grestore
gsave
90 108 m
648 108 l
stroke
grestore
gsave
90 760.32 m
648 760.32 l
stroke
grestore
1.000 setlinewidth
0 setlinecap
0.800 setgray
gsave
97 678.679375 m
193.90625 678.679375 l
195.239583 678.679375 195.90625 679.346042 195.90625 680.679375 c
195.90625 753.32 l
195.90625 754.653333 195.239583 755.32 193.90625 755.32 c
97 755.32 l
95.666667 755.32 95 754.653333 95 753.32 c
95 680.679375 l
95 679.346042 95.666667 678.679375 97 678.679375 c
cl
gsave
1.000 setgray
fill
grestore
stroke
grestore
0.000 setgray
gsave
132.875000 743.726250 translate
0.000000 rotate
0.000000 0.000000 m /b glyphshow
6.347656 0.000000 m /a glyphshow
12.475586 0.000000 m /n glyphshow
18.813477 0.000000 m /d glyphshow
grestore
gsave
99 729.054375 m
119 729.054375 l
119 736.054375 l
99 736.054375 l
cl
0.000 0.447 0.698 setrgbcolor
fill
grestore
gsave
127.000000 729.054375 translate
0.000000 rotate
0.000000 0.000000 m /t glyphshow
3.920898 0.000000 m /h glyphshow
10.258789 0.000000 m /e glyphshow
16.411133 0.000000 m /t glyphshow
20.332031 0.000000 m /a glyphshow
grestore
gsave
99 714.3825 m
119 714.3825 l
119 721.3825 l
99 721.3825 l
cl
0.000 0.620 0.451 setrgbcolor
fill
grestore
gsave
127.000000 714.382500 translate
0.000000 rotate
0.000000 0.000000 m /b glyphshow
6.347656 0.000000 m /e glyphshow
12.500000 0.000000 m /t glyphshow
16.420898 0.000000 m /a glyphshow
grestore
gsave
99 699.710625 m
119 699.710625 l
119 706.710625 l
99 706.710625 l
cl
0.835 0.369 0.000 setrgbcolor
fill
grestore
gsave
127.000000 699.710625 translate
0.000000 rotate
0.000000 0.000000 m /g glyphshow
6.347656 0.000000 m /a glyphshow
12.475586 0.000000 m /m glyphshow
22.216797 0.000000 m /m glyphshow
31.958008 0.000000 m /a glyphshow
grestore
gsave
99 685.03875 m
119 685.03875 l
119 692.03875 l
99 692.03875 l
cl
0.800 0.475 0.655 setrgbcolor
fill
grestore
gsave
127.000000 685.038750 translate
0.000000 rotate
0.000000 0.000000 m /h glyphshow
6.337891 0.000000 m /i glyphshow
9.116211 0.000000 m /g glyphshow
15.463867 0.000000 m /h glyphshow
21.801758 0.000000 m /underscore glyphshow
26.801758 0.000000 m /g glyphshow
33.149414 0.000000 m /a glyphshow
39.277344 0.000000 m /m glyphshow
49.018555 0.000000 m /m glyphshow
58.759766 0.000000 m /a glyphshow
grestore

end
showpage
