%!PS-Adobe-3.0 EPSF-3.0
%%Title: C:\Users\julienb\lab\oe_data_analysis\figures\all_ols\\allbands_coeff_barplot.eps
%%Creator: matplotlib version 3.1.0, http://matplotlib.org/
%%CreationDate: Tue Oct 15 14:06:00 2019
%%Orientation: portrait
%%BoundingBox: 90.0 252.0 522.0 540.0
%%EndComments
%%BeginProlog
/mpldict 8 dict def
mpldict begin
/m { moveto } bind def
/l { lineto } bind def
/r { rlineto } bind def
/c { curveto } bind def
/cl { closepath } bind def
/box {
m
1 index 0 r
0 exch r
neg 0 r
cl
} bind def
/clipbox {
box
clip
newpath
} bind def
%!PS-Adobe-3.0 Resource-Font
%%Title: DejaVu Sans
%%Copyright: Copyright (c) 2003 by Bitstream, Inc. All Rights Reserved. Copyright (c) 2006 by Tavmjong Bah. All Rights Reserved. DejaVu changes are in public domain 
%%Creator: Converted from TrueType to type 3 by PPR
25 dict begin
/_d{bind def}bind def
/_m{moveto}_d
/_l{lineto}_d
/_cl{closepath eofill}_d
/_c{curveto}_d
/_sc{7 -1 roll{setcachedevice}{pop pop pop pop pop pop}ifelse}_d
/_e{exec}_d
/FontName /DejaVuSans def
/PaintType 0 def
/FontMatrix[.001 0 0 .001 0 0]def
/FontBBox[-1021 -463 1793 1232]def
/FontType 3 def
/Encoding [ /period /zero /one /two /three /four /A /B /C /D /I /J /M /P /T /bracketleft /bracketright /underscore /a /b /c /d /e /g /h /i /j /k /l /m /n /o /p /r /s /t /u /v /y /minus ] def
/FontInfo 10 dict dup begin
/FamilyName (DejaVu Sans) def
/FullName (DejaVu Sans) def
/Notice (Copyright (c) 2003 by Bitstream, Inc. All Rights Reserved. Copyright (c) 2006 by Tavmjong Bah. All Rights Reserved. DejaVu changes are in public domain ) def
/Weight (Book) def
/Version (Version 2.35) def
/ItalicAngle 0.0 def
/isFixedPitch false def
/UnderlinePosition -130 def
/UnderlineThickness 90 def
end readonly def
/CharStrings 41 dict dup begin
/.notdef 0 def
/period{318 0 107 0 210 124 _sc
107 124 _m
210 124 _l
210 0 _l
107 0 _l
107 124 _l
_cl}_d
/zero{636 0 66 -13 570 742 _sc
318 664 _m
267 664 229 639 203 589 _c
177 539 165 464 165 364 _c
165 264 177 189 203 139 _c
229 89 267 64 318 64 _c
369 64 407 89 433 139 _c
458 189 471 264 471 364 _c
471 464 458 539 433 589 _c
407 639 369 664 318 664 _c
318 742 _m
399 742 461 709 505 645 _c
548 580 570 486 570 364 _c
570 241 548 147 505 83 _c
461 19 399 -13 318 -13 _c
236 -13 173 19 130 83 _c
87 147 66 241 66 364 _c
66 486 87 580 130 645 _c
173 709 236 742 318 742 _c
_cl}_d
/one{636 0 110 0 544 729 _sc
124 83 _m
285 83 _l
285 639 _l
110 604 _l
110 694 _l
284 729 _l
383 729 _l
383 83 _l
544 83 _l
544 0 _l
124 0 _l
124 83 _l
_cl}_d
/two{{636 0 73 0 536 742 _sc
192 83 _m
536 83 _l
536 0 _l
73 0 _l
73 83 _l
110 121 161 173 226 239 _c
290 304 331 346 348 365 _c
380 400 402 430 414 455 _c
426 479 433 504 433 528 _c
433 566 419 598 392 622 _c
365 646 330 659 286 659 _c
255 659 222 653 188 643 _c
154 632 117 616 78 594 _c
78 694 _l
118 710 155 722 189 730 _c
223 738 255 742 284 742 _c
}_e{359 742 419 723 464 685 _c
509 647 532 597 532 534 _c
532 504 526 475 515 449 _c
504 422 484 390 454 354 _c
446 344 420 317 376 272 _c
332 227 271 164 192 83 _c
_cl}_e}_d
/three{{636 0 76 -13 556 742 _sc
406 393 _m
453 383 490 362 516 330 _c
542 298 556 258 556 212 _c
556 140 531 84 482 45 _c
432 6 362 -13 271 -13 _c
240 -13 208 -10 176 -4 _c
144 1 110 10 76 22 _c
76 117 _l
103 101 133 89 166 81 _c
198 73 232 69 268 69 _c
330 69 377 81 409 105 _c
441 129 458 165 458 212 _c
458 254 443 288 413 312 _c
383 336 341 349 287 349 _c
}_e{202 349 _l
202 430 _l
291 430 _l
339 430 376 439 402 459 _c
428 478 441 506 441 543 _c
441 580 427 609 401 629 _c
374 649 336 659 287 659 _c
260 659 231 656 200 650 _c
169 644 135 635 98 623 _c
98 711 _l
135 721 170 729 203 734 _c
235 739 266 742 296 742 _c
370 742 429 725 473 691 _c
517 657 539 611 539 553 _c
539 513 527 479 504 451 _c
481 423 448 403 406 393 _c
_cl}_e}_d
/four{636 0 49 0 580 729 _sc
378 643 _m
129 254 _l
378 254 _l
378 643 _l
352 729 _m
476 729 _l
476 254 _l
580 254 _l
580 172 _l
476 172 _l
476 0 _l
378 0 _l
378 172 _l
49 172 _l
49 267 _l
352 729 _l
_cl}_d
/A{684 0 8 0 676 729 _sc
342 632 _m
208 269 _l
476 269 _l
342 632 _l
286 729 _m
398 729 _l
676 0 _l
573 0 _l
507 187 _l
178 187 _l
112 0 _l
8 0 _l
286 729 _l
_cl}_d
/B{{686 0 98 0 615 729 _sc
197 348 _m
197 81 _l
355 81 _l
408 81 447 92 473 114 _c
498 136 511 169 511 215 _c
511 260 498 293 473 315 _c
447 337 408 348 355 348 _c
197 348 _l
197 648 _m
197 428 _l
343 428 _l
391 428 426 437 450 455 _c
474 473 486 500 486 538 _c
486 574 474 602 450 620 _c
426 638 391 648 343 648 _c
197 648 _l
98 729 _m
350 729 _l
}_e{425 729 483 713 524 682 _c
564 650 585 606 585 549 _c
585 504 574 468 553 442 _c
532 416 502 399 462 393 _c
510 382 548 360 575 327 _c
601 294 615 253 615 204 _c
615 138 592 88 548 53 _c
504 17 441 0 360 0 _c
98 0 _l
98 729 _l
_cl}_e}_d
/C{{698 0 56 -13 644 742 _sc
644 673 _m
644 569 _l
610 599 575 622 537 638 _c
499 653 460 661 418 661 _c
334 661 270 635 226 584 _c
182 533 160 460 160 364 _c
160 268 182 194 226 143 _c
270 92 334 67 418 67 _c
460 67 499 74 537 90 _c
575 105 610 128 644 159 _c
644 56 _l
609 32 572 15 534 4 _c
496 -7 455 -13 412 -13 _c
302 -13 215 20 151 87 _c
}_e{87 154 56 246 56 364 _c
56 481 87 573 151 641 _c
215 708 302 742 412 742 _c
456 742 497 736 535 725 _c
573 713 610 696 644 673 _c
_cl}_e}_d
/D{770 0 98 0 711 729 _sc
197 648 _m
197 81 _l
316 81 _l
416 81 490 103 537 149 _c
583 195 607 267 607 365 _c
607 463 583 534 537 580 _c
490 625 416 648 316 648 _c
197 648 _l
98 729 _m
301 729 _l
442 729 546 699 612 641 _c
678 582 711 490 711 365 _c
711 239 677 147 611 88 _c
545 29 441 0 301 0 _c
98 0 _l
98 729 _l
_cl}_d
/I{295 0 98 0 197 729 _sc
98 729 _m
197 729 _l
197 0 _l
98 0 _l
98 729 _l
_cl}_d
/J{295 0 -51 -199 197 729 _sc
98 729 _m
197 729 _l
197 51 _l
197 -36 180 -99 147 -139 _c
113 -179 60 -199 -13 -199 _c
-51 -199 _l
-51 -116 _l
-20 -116 _l
22 -116 53 -103 71 -79 _c
89 -55 98 -11 98 51 _c
98 729 _l
_cl}_d
/M{863 0 98 0 765 729 _sc
98 729 _m
245 729 _l
431 233 _l
618 729 _l
765 729 _l
765 0 _l
669 0 _l
669 640 _l
481 140 _l
382 140 _l
194 640 _l
194 0 _l
98 0 _l
98 729 _l
_cl}_d
/P{603 0 98 0 569 729 _sc
197 648 _m
197 374 _l
321 374 _l
367 374 402 385 427 409 _c
452 433 465 467 465 511 _c
465 555 452 588 427 612 _c
402 636 367 648 321 648 _c
197 648 _l
98 729 _m
321 729 _l
402 729 464 710 506 673 _c
548 636 569 582 569 511 _c
569 439 548 384 506 348 _c
464 311 402 293 321 293 _c
197 293 _l
197 0 _l
98 0 _l
98 729 _l
_cl}_d
/T{611 0 -2 0 614 729 _sc
-2 729 _m
614 729 _l
614 646 _l
355 646 _l
355 0 _l
256 0 _l
256 646 _l
-2 646 _l
-2 729 _l
_cl}_d
/bracketleft{390 0 86 -131 293 760 _sc
86 760 _m
293 760 _l
293 690 _l
176 690 _l
176 -61 _l
293 -61 _l
293 -131 _l
86 -131 _l
86 760 _l
_cl}_d
/bracketright{390 0 97 -131 304 760 _sc
304 760 _m
304 -131 _l
97 -131 _l
97 -61 _l
214 -61 _l
214 690 _l
97 690 _l
97 760 _l
304 760 _l
_cl}_d
/underscore{500 0 -9 -235 510 -165 _sc
510 -165 _m
510 -235 _l
-9 -235 _l
-9 -165 _l
510 -165 _l
_cl}_d
/a{{613 0 60 -13 522 560 _sc
343 275 _m
270 275 220 266 192 250 _c
164 233 150 205 150 165 _c
150 133 160 107 181 89 _c
202 70 231 61 267 61 _c
317 61 357 78 387 114 _c
417 149 432 196 432 255 _c
432 275 _l
343 275 _l
522 312 _m
522 0 _l
432 0 _l
432 83 _l
411 49 385 25 355 10 _c
325 -5 287 -13 243 -13 _c
187 -13 142 2 109 33 _c
76 64 60 106 60 159 _c
}_e{60 220 80 266 122 298 _c
163 329 224 345 306 345 _c
432 345 _l
432 354 _l
432 395 418 427 391 450 _c
364 472 326 484 277 484 _c
245 484 215 480 185 472 _c
155 464 127 453 100 439 _c
100 522 _l
132 534 164 544 195 550 _c
226 556 256 560 286 560 _c
365 560 424 539 463 498 _c
502 457 522 395 522 312 _c
_cl}_e}_d
/b{{635 0 91 -13 580 760 _sc
487 273 _m
487 339 473 390 446 428 _c
418 466 381 485 334 485 _c
286 485 249 466 222 428 _c
194 390 181 339 181 273 _c
181 207 194 155 222 117 _c
249 79 286 61 334 61 _c
381 61 418 79 446 117 _c
473 155 487 207 487 273 _c
181 464 _m
199 496 223 520 252 536 _c
281 552 316 560 356 560 _c
422 560 476 533 518 481 _c
559 428 580 359 580 273 _c
}_e{580 187 559 117 518 65 _c
476 13 422 -13 356 -13 _c
316 -13 281 -5 252 10 _c
223 25 199 49 181 82 _c
181 0 _l
91 0 _l
91 760 _l
181 760 _l
181 464 _l
_cl}_e}_d
/c{{550 0 55 -13 488 560 _sc
488 526 _m
488 442 _l
462 456 437 466 411 473 _c
385 480 360 484 334 484 _c
276 484 230 465 198 428 _c
166 391 150 339 150 273 _c
150 206 166 154 198 117 _c
230 80 276 62 334 62 _c
360 62 385 65 411 72 _c
437 79 462 90 488 104 _c
488 21 _l
462 9 436 0 410 -5 _c
383 -10 354 -13 324 -13 _c
242 -13 176 12 128 64 _c
}_e{79 115 55 185 55 273 _c
55 362 79 432 128 483 _c
177 534 244 560 330 560 _c
358 560 385 557 411 551 _c
437 545 463 537 488 526 _c
_cl}_e}_d
/d{{635 0 55 -13 544 760 _sc
454 464 _m
454 760 _l
544 760 _l
544 0 _l
454 0 _l
454 82 _l
435 49 411 25 382 10 _c
353 -5 319 -13 279 -13 _c
213 -13 159 13 117 65 _c
75 117 55 187 55 273 _c
55 359 75 428 117 481 _c
159 533 213 560 279 560 _c
319 560 353 552 382 536 _c
411 520 435 496 454 464 _c
148 273 _m
148 207 161 155 188 117 _c
215 79 253 61 301 61 _c
}_e{348 61 385 79 413 117 _c
440 155 454 207 454 273 _c
454 339 440 390 413 428 _c
385 466 348 485 301 485 _c
253 485 215 466 188 428 _c
161 390 148 339 148 273 _c
_cl}_e}_d
/e{{615 0 55 -13 562 560 _sc
562 296 _m
562 252 _l
149 252 _l
153 190 171 142 205 110 _c
238 78 284 62 344 62 _c
378 62 412 66 444 74 _c
476 82 509 95 541 113 _c
541 28 _l
509 14 476 3 442 -3 _c
408 -9 373 -13 339 -13 _c
251 -13 182 12 131 62 _c
80 112 55 181 55 268 _c
55 357 79 428 127 481 _c
175 533 241 560 323 560 _c
397 560 455 536 498 489 _c
}_e{540 441 562 377 562 296 _c
472 322 _m
471 371 457 410 431 440 _c
404 469 368 484 324 484 _c
274 484 234 469 204 441 _c
174 413 156 373 152 322 _c
472 322 _l
_cl}_e}_d
/g{{635 0 55 -207 544 560 _sc
454 280 _m
454 344 440 395 414 431 _c
387 467 349 485 301 485 _c
253 485 215 467 188 431 _c
161 395 148 344 148 280 _c
148 215 161 165 188 129 _c
215 93 253 75 301 75 _c
349 75 387 93 414 129 _c
440 165 454 215 454 280 _c
544 68 _m
544 -24 523 -93 482 -139 _c
440 -184 377 -207 292 -207 _c
260 -207 231 -204 203 -200 _c
175 -195 147 -188 121 -178 _c
}_e{121 -91 _l
147 -105 173 -115 199 -122 _c
225 -129 251 -133 278 -133 _c
336 -133 380 -117 410 -87 _c
439 -56 454 -10 454 52 _c
454 96 _l
435 64 411 40 382 24 _c
353 8 319 0 279 0 _c
211 0 157 25 116 76 _c
75 127 55 195 55 280 _c
55 364 75 432 116 483 _c
157 534 211 560 279 560 _c
319 560 353 552 382 536 _c
411 520 435 496 454 464 _c
454 547 _l
544 547 _l
}_e{544 68 _l
_cl}_e}_d
/h{634 0 91 0 549 760 _sc
549 330 _m
549 0 _l
459 0 _l
459 327 _l
459 379 448 417 428 443 _c
408 469 378 482 338 482 _c
289 482 251 466 223 435 _c
195 404 181 362 181 309 _c
181 0 _l
91 0 _l
91 760 _l
181 760 _l
181 462 _l
202 494 227 519 257 535 _c
286 551 320 560 358 560 _c
420 560 468 540 500 501 _c
532 462 549 405 549 330 _c
_cl}_d
/i{278 0 94 0 184 760 _sc
94 547 _m
184 547 _l
184 0 _l
94 0 _l
94 547 _l
94 760 _m
184 760 _l
184 646 _l
94 646 _l
94 760 _l
_cl}_d
/j{278 0 -17 -207 184 760 _sc
94 547 _m
184 547 _l
184 -9 _l
184 -78 170 -128 144 -160 _c
117 -191 74 -207 16 -207 _c
-17 -207 _l
-17 -131 _l
6 -131 _l
40 -131 63 -123 75 -107 _c
87 -91 94 -58 94 -9 _c
94 547 _l
94 760 _m
184 760 _l
184 646 _l
94 646 _l
94 760 _l
_cl}_d
/k{579 0 91 0 576 760 _sc
91 760 _m
181 760 _l
181 311 _l
449 547 _l
564 547 _l
274 291 _l
576 0 _l
459 0 _l
181 267 _l
181 0 _l
91 0 _l
91 760 _l
_cl}_d
/l{278 0 94 0 184 760 _sc
94 760 _m
184 760 _l
184 0 _l
94 0 _l
94 760 _l
_cl}_d
/m{{974 0 91 0 889 560 _sc
520 442 _m
542 482 569 511 600 531 _c
631 550 668 560 711 560 _c
767 560 811 540 842 500 _c
873 460 889 403 889 330 _c
889 0 _l
799 0 _l
799 327 _l
799 379 789 418 771 444 _c
752 469 724 482 686 482 _c
639 482 602 466 575 435 _c
548 404 535 362 535 309 _c
535 0 _l
445 0 _l
445 327 _l
445 379 435 418 417 444 _c
398 469 369 482 331 482 _c
}_e{285 482 248 466 221 435 _c
194 404 181 362 181 309 _c
181 0 _l
91 0 _l
91 547 _l
181 547 _l
181 462 _l
201 495 226 520 255 536 _c
283 552 317 560 357 560 _c
397 560 430 550 458 530 _c
486 510 506 480 520 442 _c
_cl}_e}_d
/n{634 0 91 0 549 560 _sc
549 330 _m
549 0 _l
459 0 _l
459 327 _l
459 379 448 417 428 443 _c
408 469 378 482 338 482 _c
289 482 251 466 223 435 _c
195 404 181 362 181 309 _c
181 0 _l
91 0 _l
91 547 _l
181 547 _l
181 462 _l
202 494 227 519 257 535 _c
286 551 320 560 358 560 _c
420 560 468 540 500 501 _c
532 462 549 405 549 330 _c
_cl}_d
/o{612 0 55 -13 557 560 _sc
306 484 _m
258 484 220 465 192 427 _c
164 389 150 338 150 273 _c
150 207 163 156 191 118 _c
219 80 257 62 306 62 _c
354 62 392 80 420 118 _c
448 156 462 207 462 273 _c
462 337 448 389 420 427 _c
392 465 354 484 306 484 _c
306 560 _m
384 560 445 534 490 484 _c
534 433 557 363 557 273 _c
557 183 534 113 490 63 _c
445 12 384 -13 306 -13 _c
227 -13 165 12 121 63 _c
77 113 55 183 55 273 _c
55 363 77 433 121 484 _c
165 534 227 560 306 560 _c
_cl}_d
/p{{635 0 91 -207 580 560 _sc
181 82 _m
181 -207 _l
91 -207 _l
91 547 _l
181 547 _l
181 464 _l
199 496 223 520 252 536 _c
281 552 316 560 356 560 _c
422 560 476 533 518 481 _c
559 428 580 359 580 273 _c
580 187 559 117 518 65 _c
476 13 422 -13 356 -13 _c
316 -13 281 -5 252 10 _c
223 25 199 49 181 82 _c
487 273 _m
487 339 473 390 446 428 _c
418 466 381 485 334 485 _c
}_e{286 485 249 466 222 428 _c
194 390 181 339 181 273 _c
181 207 194 155 222 117 _c
249 79 286 61 334 61 _c
381 61 418 79 446 117 _c
473 155 487 207 487 273 _c
_cl}_e}_d
/r{411 0 91 0 411 560 _sc
411 463 _m
401 469 390 473 378 476 _c
366 478 353 480 339 480 _c
288 480 249 463 222 430 _c
194 397 181 350 181 288 _c
181 0 _l
91 0 _l
91 547 _l
181 547 _l
181 462 _l
199 495 224 520 254 536 _c
284 552 321 560 365 560 _c
371 560 378 559 386 559 _c
393 558 401 557 411 555 _c
411 463 _l
_cl}_d
/s{{521 0 54 -13 472 560 _sc
443 531 _m
443 446 _l
417 458 391 468 364 475 _c
336 481 308 485 279 485 _c
234 485 200 478 178 464 _c
156 450 145 430 145 403 _c
145 382 153 366 169 354 _c
185 342 217 330 265 320 _c
296 313 _l
360 299 405 279 432 255 _c
458 230 472 195 472 151 _c
472 100 452 60 412 31 _c
372 1 316 -13 246 -13 _c
216 -13 186 -10 154 -5 _c
}_e{122 0 89 8 54 20 _c
54 113 _l
87 95 120 82 152 74 _c
184 65 216 61 248 61 _c
290 61 323 68 346 82 _c
368 96 380 117 380 144 _c
380 168 371 187 355 200 _c
339 213 303 226 247 238 _c
216 245 _l
160 257 119 275 95 299 _c
70 323 58 356 58 399 _c
58 450 76 490 112 518 _c
148 546 200 560 268 560 _c
301 560 332 557 362 552 _c
391 547 418 540 443 531 _c
}_e{_cl}_e}_d
/t{392 0 27 0 368 702 _sc
183 702 _m
183 547 _l
368 547 _l
368 477 _l
183 477 _l
183 180 _l
183 135 189 106 201 94 _c
213 81 238 75 276 75 _c
368 75 _l
368 0 _l
276 0 _l
206 0 158 13 132 39 _c
106 65 93 112 93 180 _c
93 477 _l
27 477 _l
27 547 _l
93 547 _l
93 702 _l
183 702 _l
_cl}_d
/u{634 0 85 -13 543 560 _sc
85 216 _m
85 547 _l
175 547 _l
175 219 _l
175 167 185 129 205 103 _c
225 77 255 64 296 64 _c
344 64 383 79 411 110 _c
439 141 453 183 453 237 _c
453 547 _l
543 547 _l
543 0 _l
453 0 _l
453 84 _l
431 50 405 26 377 10 _c
348 -5 315 -13 277 -13 _c
214 -13 166 6 134 45 _c
101 83 85 140 85 216 _c
311 560 _m
311 560 _l
_cl}_d
/v{592 0 30 0 562 547 _sc
30 547 _m
125 547 _l
296 88 _l
467 547 _l
562 547 _l
357 0 _l
235 0 _l
30 547 _l
_cl}_d
/y{592 0 30 -207 562 547 _sc
322 -50 _m
296 -114 271 -157 247 -177 _c
223 -197 191 -207 151 -207 _c
79 -207 _l
79 -132 _l
132 -132 _l
156 -132 175 -126 189 -114 _c
203 -102 218 -75 235 -31 _c
251 9 _l
30 547 _l
125 547 _l
296 119 _l
467 547 _l
562 547 _l
322 -50 _l
_cl}_d
/minus{838 0 106 272 732 355 _sc
106 355 _m
732 355 _l
732 272 _l
106 272 _l
106 355 _l
_cl}_d
end readonly def

/BuildGlyph
 {exch begin
 CharStrings exch
 2 copy known not{pop /.notdef}if
 true 3 1 roll get exec
 end}_d

/BuildChar {
 1 index /Encoding get exch get
 1 index /BuildGlyph get exec
}_d

FontName currentdict end definefont pop
end
%%EndProlog
mpldict begin
90 252 translate
432 288 0 0 clipbox
gsave
0 0 m
432 0 l
432 288 l
0 288 l
cl
1.000 setgray
fill
grestore
gsave
54 36 m
388.8 36 l
388.8 253.44 l
54 253.44 l
cl
1.000 setgray
fill
grestore
gsave
334.8 217.4 54 36 clipbox
59.978571 233.33223 m
62.967857 233.33223 l
62.967857 227.335578 l
59.978571 227.335578 l
cl
0.000 0.447 0.698 setrgbcolor
fill
grestore
gsave
334.8 217.4 54 36 clipbox
83.892857 233.33223 m
86.882143 233.33223 l
86.882143 211.518216 l
83.892857 211.518216 l
cl
0.000 0.447 0.698 setrgbcolor
fill
grestore
gsave
334.8 217.4 54 36 clipbox
107.807143 233.33223 m
110.796429 233.33223 l
110.796429 216.316161 l
107.807143 216.316161 l
cl
0.000 0.447 0.698 setrgbcolor
fill
grestore
gsave
334.8 217.4 54 36 clipbox
131.721429 233.33223 m
134.710714 233.33223 l
134.710714 212.643832 l
131.721429 212.643832 l
cl
0.000 0.447 0.698 setrgbcolor
fill
grestore
gsave
334.8 217.4 54 36 clipbox
155.635714 233.33223 m
158.625 233.33223 l
158.625 226.802097 l
155.635714 226.802097 l
cl
0.000 0.447 0.698 setrgbcolor
fill
grestore
gsave
334.8 217.4 54 36 clipbox
179.55 233.33223 m
182.539286 233.33223 l
182.539286 228.711849 l
179.55 228.711849 l
cl
0.000 0.447 0.698 setrgbcolor
fill
grestore
gsave
334.8 217.4 54 36 clipbox
203.464286 233.33223 m
206.453571 233.33223 l
206.453571 239.759804 l
203.464286 239.759804 l
cl
0.000 0.447 0.698 setrgbcolor
fill
grestore
gsave
334.8 217.4 54 36 clipbox
227.378571 233.33223 m
230.367857 233.33223 l
230.367857 143.690271 l
227.378571 143.690271 l
cl
0.000 0.447 0.698 setrgbcolor
fill
grestore
gsave
334.8 217.4 54 36 clipbox
251.292857 233.33223 m
254.282143 233.33223 l
254.282143 46.357139 l
251.292857 46.357139 l
cl
0.000 0.447 0.698 setrgbcolor
fill
grestore
gsave
334.8 217.4 54 36 clipbox
275.207143 233.33223 m
278.196429 233.33223 l
278.196429 239.451698 l
275.207143 239.451698 l
cl
0.000 0.447 0.698 setrgbcolor
fill
grestore
gsave
334.8 217.4 54 36 clipbox
299.121429 233.33223 m
302.110714 233.33223 l
302.110714 239.919831 l
299.121429 239.919831 l
cl
0.000 0.447 0.698 setrgbcolor
fill
grestore
gsave
334.8 217.4 54 36 clipbox
323.035714 233.33223 m
326.025 233.33223 l
326.025 242.422102 l
323.035714 242.422102 l
cl
0.000 0.447 0.698 setrgbcolor
fill
grestore
gsave
334.8 217.4 54 36 clipbox
346.95 233.33223 m
349.939286 233.33223 l
349.939286 242.367399 l
346.95 242.367399 l
cl
0.000 0.447 0.698 setrgbcolor
fill
grestore
gsave
334.8 217.4 54 36 clipbox
370.864286 233.33223 m
373.853571 233.33223 l
373.853571 243.352678 l
370.864286 243.352678 l
cl
0.000 0.447 0.698 setrgbcolor
fill
grestore
gsave
334.8 217.4 54 36 clipbox
62.967857 233.33223 m
65.957143 233.33223 l
65.957143 230.319589 l
62.967857 230.319589 l
cl
0.000 0.620 0.451 setrgbcolor
fill
grestore
gsave
334.8 217.4 54 36 clipbox
86.882143 233.33223 m
89.871429 233.33223 l
89.871429 220.639825 l
86.882143 220.639825 l
cl
0.000 0.620 0.451 setrgbcolor
fill
grestore
gsave
334.8 217.4 54 36 clipbox
110.796429 233.33223 m
113.785714 233.33223 l
113.785714 232.120804 l
110.796429 232.120804 l
cl
0.000 0.620 0.451 setrgbcolor
fill
grestore
gsave
334.8 217.4 54 36 clipbox
134.710714 233.33223 m
137.7 233.33223 l
137.7 225.180332 l
134.710714 225.180332 l
cl
0.000 0.620 0.451 setrgbcolor
fill
grestore
gsave
334.8 217.4 54 36 clipbox
158.625 233.33223 m
161.614286 233.33223 l
161.614286 231.817331 l
158.625 231.817331 l
cl
0.000 0.620 0.451 setrgbcolor
fill
grestore
gsave
334.8 217.4 54 36 clipbox
182.539286 233.33223 m
185.528571 233.33223 l
185.528571 232.426683 l
182.539286 232.426683 l
cl
0.000 0.620 0.451 setrgbcolor
fill
grestore
gsave
334.8 217.4 54 36 clipbox
206.453571 233.33223 m
209.442857 233.33223 l
209.442857 235.434035 l
206.453571 235.434035 l
cl
0.000 0.620 0.451 setrgbcolor
fill
grestore
gsave
334.8 217.4 54 36 clipbox
230.367857 233.33223 m
233.357143 233.33223 l
233.357143 208.057774 l
230.367857 208.057774 l
cl
0.000 0.620 0.451 setrgbcolor
fill
grestore
gsave
334.8 217.4 54 36 clipbox
254.282143 233.33223 m
257.271429 233.33223 l
257.271429 179.967451 l
254.282143 179.967451 l
cl
0.000 0.620 0.451 setrgbcolor
fill
grestore
gsave
334.8 217.4 54 36 clipbox
278.196429 233.33223 m
281.185714 233.33223 l
281.185714 237.661878 l
278.196429 237.661878 l
cl
0.000 0.620 0.451 setrgbcolor
fill
grestore
gsave
334.8 217.4 54 36 clipbox
302.110714 233.33223 m
305.1 233.33223 l
305.1 237.655627 l
302.110714 237.655627 l
cl
0.000 0.620 0.451 setrgbcolor
fill
grestore
gsave
334.8 217.4 54 36 clipbox
326.025 233.33223 m
329.014286 233.33223 l
329.014286 234.892891 l
326.025 234.892891 l
cl
0.000 0.620 0.451 setrgbcolor
fill
grestore
gsave
334.8 217.4 54 36 clipbox
349.939286 233.33223 m
352.928571 233.33223 l
352.928571 234.967788 l
349.939286 234.967788 l
cl
0.000 0.620 0.451 setrgbcolor
fill
grestore
gsave
334.8 217.4 54 36 clipbox
373.853571 233.33223 m
376.842857 233.33223 l
376.842857 231.625153 l
373.853571 231.625153 l
cl
0.000 0.620 0.451 setrgbcolor
fill
grestore
gsave
334.8 217.4 54 36 clipbox
65.957143 233.33223 m
68.946429 233.33223 l
68.946429 233.224427 l
65.957143 233.224427 l
cl
0.835 0.369 0.000 setrgbcolor
fill
grestore
gsave
334.8 217.4 54 36 clipbox
89.871429 233.33223 m
92.860714 233.33223 l
92.860714 213.991028 l
89.871429 213.991028 l
cl
0.835 0.369 0.000 setrgbcolor
fill
grestore
gsave
334.8 217.4 54 36 clipbox
113.785714 233.33223 m
116.775 233.33223 l
116.775 233.303379 l
113.785714 233.303379 l
cl
0.835 0.369 0.000 setrgbcolor
fill
grestore
gsave
334.8 217.4 54 36 clipbox
137.7 233.33223 m
140.689286 233.33223 l
140.689286 226.868915 l
137.7 226.868915 l
cl
0.835 0.369 0.000 setrgbcolor
fill
grestore
gsave
334.8 217.4 54 36 clipbox
161.614286 233.33223 m
164.603571 233.33223 l
164.603571 231.854265 l
161.614286 231.854265 l
cl
0.835 0.369 0.000 setrgbcolor
fill
grestore
gsave
334.8 217.4 54 36 clipbox
185.528571 233.33223 m
188.517857 233.33223 l
188.517857 232.274056 l
185.528571 232.274056 l
cl
0.835 0.369 0.000 setrgbcolor
fill
grestore
gsave
334.8 217.4 54 36 clipbox
209.442857 233.33223 m
212.432143 233.33223 l
212.432143 234.780587 l
209.442857 234.780587 l
cl
0.835 0.369 0.000 setrgbcolor
fill
grestore
gsave
334.8 217.4 54 36 clipbox
233.357143 233.33223 m
236.346429 233.33223 l
236.346429 217.649255 l
233.357143 217.649255 l
cl
0.835 0.369 0.000 setrgbcolor
fill
grestore
gsave
334.8 217.4 54 36 clipbox
257.271429 233.33223 m
260.260714 233.33223 l
260.260714 177.025922 l
257.271429 177.025922 l
cl
0.835 0.369 0.000 setrgbcolor
fill
grestore
gsave
334.8 217.4 54 36 clipbox
281.185714 233.33223 m
284.175 233.33223 l
284.175 234.375397 l
281.185714 234.375397 l
cl
0.835 0.369 0.000 setrgbcolor
fill
grestore
gsave
334.8 217.4 54 36 clipbox
305.1 233.33223 m
308.089286 233.33223 l
308.089286 234.449326 l
305.1 234.449326 l
cl
0.835 0.369 0.000 setrgbcolor
fill
grestore
gsave
334.8 217.4 54 36 clipbox
329.014286 233.33223 m
332.003571 233.33223 l
332.003571 236.398185 l
329.014286 236.398185 l
cl
0.835 0.369 0.000 setrgbcolor
fill
grestore
gsave
334.8 217.4 54 36 clipbox
352.928571 233.33223 m
355.917857 233.33223 l
355.917857 236.405912 l
352.928571 236.405912 l
cl
0.835 0.369 0.000 setrgbcolor
fill
grestore
gsave
334.8 217.4 54 36 clipbox
376.842857 233.33223 m
379.832143 233.33223 l
379.832143 230.367453 l
376.842857 230.367453 l
cl
0.835 0.369 0.000 setrgbcolor
fill
grestore
gsave
334.8 217.4 54 36 clipbox
68.946429 233.33223 m
71.935714 233.33223 l
71.935714 231.378714 l
68.946429 231.378714 l
cl
0.800 0.475 0.655 setrgbcolor
fill
grestore
gsave
334.8 217.4 54 36 clipbox
92.860714 233.33223 m
95.85 233.33223 l
95.85 190.61805 l
92.860714 190.61805 l
cl
0.800 0.475 0.655 setrgbcolor
fill
grestore
gsave
334.8 217.4 54 36 clipbox
116.775 233.33223 m
119.764286 233.33223 l
119.764286 221.69375 l
116.775 221.69375 l
cl
0.800 0.475 0.655 setrgbcolor
fill
grestore
gsave
334.8 217.4 54 36 clipbox
140.689286 233.33223 m
143.678571 233.33223 l
143.678571 228.99792 l
140.689286 228.99792 l
cl
0.800 0.475 0.655 setrgbcolor
fill
grestore
gsave
334.8 217.4 54 36 clipbox
164.603571 233.33223 m
167.592857 233.33223 l
167.592857 230.548043 l
164.603571 230.548043 l
cl
0.800 0.475 0.655 setrgbcolor
fill
grestore
gsave
334.8 217.4 54 36 clipbox
188.517857 233.33223 m
191.507143 233.33223 l
191.507143 231.603154 l
188.517857 231.603154 l
cl
0.800 0.475 0.655 setrgbcolor
fill
grestore
gsave
334.8 217.4 54 36 clipbox
212.432143 233.33223 m
215.421429 233.33223 l
215.421429 236.918302 l
212.432143 236.918302 l
cl
0.800 0.475 0.655 setrgbcolor
fill
grestore
gsave
334.8 217.4 54 36 clipbox
236.346429 233.33223 m
239.335714 233.33223 l
239.335714 217.612875 l
236.346429 217.612875 l
cl
0.800 0.475 0.655 setrgbcolor
fill
grestore
gsave
334.8 217.4 54 36 clipbox
260.260714 233.33223 m
263.25 233.33223 l
263.25 115.377803 l
260.260714 115.377803 l
cl
0.800 0.475 0.655 setrgbcolor
fill
grestore
gsave
334.8 217.4 54 36 clipbox
284.175 233.33223 m
287.164286 233.33223 l
287.164286 231.524203 l
284.175 231.524203 l
cl
0.800 0.475 0.655 setrgbcolor
fill
grestore
gsave
334.8 217.4 54 36 clipbox
308.089286 233.33223 m
311.078571 233.33223 l
311.078571 231.711822 l
308.089286 231.711822 l
cl
0.800 0.475 0.655 setrgbcolor
fill
grestore
gsave
334.8 217.4 54 36 clipbox
332.003571 233.33223 m
334.992857 233.33223 l
334.992857 228.197912 l
332.003571 228.197912 l
cl
0.800 0.475 0.655 setrgbcolor
fill
grestore
gsave
334.8 217.4 54 36 clipbox
355.917857 233.33223 m
358.907143 233.33223 l
358.907143 228.35541 l
355.917857 228.35541 l
cl
0.800 0.475 0.655 setrgbcolor
fill
grestore
gsave
334.8 217.4 54 36 clipbox
379.832143 233.33223 m
382.821429 233.33223 l
382.821429 234.516279 l
379.832143 234.516279 l
cl
0.800 0.475 0.655 setrgbcolor
fill
grestore
0.800 setlinewidth
1 setlinejoin
0 setlinecap
[] 0 setdash
0.000 setgray
gsave
/o {
gsave
newpath
translate
0.8 setlinewidth
1 setlinejoin
0 setlinecap
0 0 m
0 -3.5 l

gsave
0.000 setgray
fill
grestore
stroke
grestore
} bind def
65.9571 36 o
grestore
/DejaVuSans findfont
10.000 scalefont
setfont
gsave
68.574330 -25.500000 translate
90.000000 rotate
0.000000 0.000000 m /B glyphshow
6.860352 0.000000 m /l glyphshow
9.638672 0.000000 m /o glyphshow
15.756836 0.000000 m /c glyphshow
21.254883 0.000000 m /k glyphshow
27.045898 0.000000 m /underscore glyphshow
32.045898 0.000000 m /n glyphshow
38.383789 0.000000 m /u glyphshow
44.721680 0.000000 m /m glyphshow
grestore
gsave
/o {
gsave
newpath
translate
0.8 setlinewidth
1 setlinejoin
0 setlinecap
0 0 m
0 -3.5 l

gsave
0.000 setgray
fill
grestore
stroke
grestore
} bind def
89.8714 36 o
grestore
gsave
92.488616 -14.812500 translate
90.000000 rotate
0.000000 0.000000 m /C glyphshow
6.982422 0.000000 m /o glyphshow
13.100586 0.000000 m /h glyphshow
19.438477 0.000000 m /underscore glyphshow
24.438477 0.000000 m /p glyphshow
30.786133 0.000000 m /r glyphshow
34.897461 0.000000 m /o glyphshow
41.015625 0.000000 m /j glyphshow
grestore
gsave
/o {
gsave
newpath
translate
0.8 setlinewidth
1 setlinejoin
0 setlinecap
0 0 m
0 -3.5 l

gsave
0.000 setgray
fill
grestore
stroke
grestore
} bind def
113.786 36 o
grestore
gsave
116.543527 -4.906250 translate
90.000000 rotate
0.000000 0.000000 m /D glyphshow
7.700195 0.000000 m /e glyphshow
13.852539 0.000000 m /l glyphshow
16.630859 0.000000 m /a glyphshow
22.758789 0.000000 m /y glyphshow
28.676758 0.000000 m /s glyphshow
grestore
gsave
/o {
gsave
newpath
translate
0.8 setlinewidth
1 setlinejoin
0 setlinecap
0 0 m
0 -3.5 l

gsave
0.000 setgray
fill
grestore
stroke
grestore
} bind def
137.7 36 o
grestore
gsave
140.457812 -14.750000 translate
90.000000 rotate
0.000000 0.000000 m /D glyphshow
7.700195 0.000000 m /i glyphshow
10.478516 0.000000 m /s glyphshow
15.688477 0.000000 m /t glyphshow
19.609375 0.000000 m /a glyphshow
25.737305 0.000000 m /n glyphshow
32.075195 0.000000 m /c glyphshow
37.573242 0.000000 m /e glyphshow
grestore
gsave
/o {
gsave
newpath
translate
0.8 setlinewidth
1 setlinejoin
0 setlinecap
0 0 m
0 -3.5 l

gsave
0.000 setgray
fill
grestore
stroke
grestore
} bind def
161.614 36 o
grestore
gsave
164.231473 -48.000000 translate
90.000000 rotate
0.000000 0.000000 m /D glyphshow
7.700195 0.000000 m /i glyphshow
10.478516 0.000000 m /s glyphshow
15.688477 0.000000 m /t glyphshow
19.609375 0.000000 m /a glyphshow
25.737305 0.000000 m /n glyphshow
32.075195 0.000000 m /c glyphshow
37.573242 0.000000 m /e glyphshow
43.725586 0.000000 m /underscore glyphshow
48.725586 0.000000 m /t glyphshow
52.646484 0.000000 m /o glyphshow
58.764648 0.000000 m /underscore glyphshow
63.764648 0.000000 m /A glyphshow
70.605469 0.000000 m /one glyphshow
grestore
gsave
/o {
gsave
newpath
translate
0.8 setlinewidth
1 setlinejoin
0 setlinecap
0 0 m
0 -3.5 l

gsave
0.000 setgray
fill
grestore
stroke
grestore
} bind def
185.529 36 o
grestore
gsave
188.145759 -48.000000 translate
90.000000 rotate
0.000000 0.000000 m /D glyphshow
7.700195 0.000000 m /i glyphshow
10.478516 0.000000 m /s glyphshow
15.688477 0.000000 m /t glyphshow
19.609375 0.000000 m /a glyphshow
25.737305 0.000000 m /n glyphshow
32.075195 0.000000 m /c glyphshow
37.573242 0.000000 m /e glyphshow
43.725586 0.000000 m /underscore glyphshow
48.725586 0.000000 m /t glyphshow
52.646484 0.000000 m /o glyphshow
58.764648 0.000000 m /underscore glyphshow
63.764648 0.000000 m /A glyphshow
70.605469 0.000000 m /two glyphshow
grestore
gsave
/o {
gsave
newpath
translate
0.8 setlinewidth
1 setlinejoin
0 setlinecap
0 0 m
0 -3.5 l

gsave
0.000 setgray
fill
grestore
stroke
grestore
} bind def
209.443 36 o
grestore
gsave
212.060045 -48.015625 translate
90.000000 rotate
0.000000 0.000000 m /D glyphshow
7.700195 0.000000 m /i glyphshow
10.478516 0.000000 m /s glyphshow
15.688477 0.000000 m /t glyphshow
19.609375 0.000000 m /a glyphshow
25.737305 0.000000 m /n glyphshow
32.075195 0.000000 m /c glyphshow
37.573242 0.000000 m /e glyphshow
43.725586 0.000000 m /underscore glyphshow
48.725586 0.000000 m /t glyphshow
52.646484 0.000000 m /o glyphshow
58.764648 0.000000 m /underscore glyphshow
63.764648 0.000000 m /B glyphshow
70.625000 0.000000 m /one glyphshow
grestore
gsave
/o {
gsave
newpath
translate
0.8 setlinewidth
1 setlinejoin
0 setlinecap
0 0 m
0 -3.5 l

gsave
0.000 setgray
fill
grestore
stroke
grestore
} bind def
233.357 36 o
grestore
gsave
235.974330 -21.656250 translate
90.000000 rotate
0.000000 0.000000 m /I glyphshow
2.949219 0.000000 m /n glyphshow
9.287109 0.000000 m /i glyphshow
12.065430 0.000000 m /t glyphshow
15.986328 0.000000 m /i glyphshow
18.764648 0.000000 m /a glyphshow
24.892578 0.000000 m /l glyphshow
27.670898 0.000000 m /underscore glyphshow
32.670898 0.000000 m /c glyphshow
38.168945 0.000000 m /o glyphshow
44.287109 0.000000 m /h glyphshow
grestore
gsave
/o {
gsave
newpath
translate
0.8 setlinewidth
1 setlinejoin
0 setlinecap
0 0 m
0 -3.5 l

gsave
0.000 setgray
fill
grestore
stroke
grestore
} bind def
257.271 36 o
grestore
gsave
260.029241 -35.234375 translate
90.000000 rotate
0.000000 0.000000 m /M glyphshow
8.627930 0.000000 m /o glyphshow
14.746094 0.000000 m /n glyphshow
21.083984 0.000000 m /k glyphshow
26.875000 0.000000 m /e glyphshow
33.027344 0.000000 m /y glyphshow
38.945312 0.000000 m /s glyphshow
44.155273 0.000000 m /bracketleft glyphshow
48.056641 0.000000 m /T glyphshow
54.149414 0.000000 m /period glyphshow
57.328125 0.000000 m /J glyphshow
60.277344 0.000000 m /bracketright glyphshow
grestore
gsave
/o {
gsave
newpath
translate
0.8 setlinewidth
1 setlinejoin
0 setlinecap
0 0 m
0 -3.5 l

gsave
0.000 setgray
fill
grestore
stroke
grestore
} bind def
281.186 36 o
grestore
gsave
283.943527 3.500000 translate
90.000000 rotate
0.000000 0.000000 m /P glyphshow
6.030273 0.000000 m /C glyphshow
13.012695 0.000000 m /one glyphshow
19.375000 0.000000 m /a glyphshow
grestore
gsave
/o {
gsave
newpath
translate
0.8 setlinewidth
1 setlinejoin
0 setlinecap
0 0 m
0 -3.5 l

gsave
0.000 setgray
fill
grestore
stroke
grestore
} bind def
305.1 36 o
grestore
gsave
307.857813 3.281250 translate
90.000000 rotate
0.000000 0.000000 m /P glyphshow
6.030273 0.000000 m /C glyphshow
13.012695 0.000000 m /one glyphshow
19.375000 0.000000 m /b glyphshow
grestore
gsave
/o {
gsave
newpath
translate
0.8 setlinewidth
1 setlinejoin
0 setlinecap
0 0 m
0 -3.5 l

gsave
0.000 setgray
fill
grestore
stroke
grestore
} bind def
329.014 36 o
grestore
gsave
331.772098 3.500000 translate
90.000000 rotate
0.000000 0.000000 m /P glyphshow
6.030273 0.000000 m /C glyphshow
13.012695 0.000000 m /two glyphshow
19.375000 0.000000 m /a glyphshow
grestore
gsave
/o {
gsave
newpath
translate
0.8 setlinewidth
1 setlinejoin
0 setlinecap
0 0 m
0 -3.5 l

gsave
0.000 setgray
fill
grestore
stroke
grestore
} bind def
352.929 36 o
grestore
gsave
355.686384 3.281250 translate
90.000000 rotate
0.000000 0.000000 m /P glyphshow
6.030273 0.000000 m /C glyphshow
13.012695 0.000000 m /two glyphshow
19.375000 0.000000 m /b glyphshow
grestore
gsave
/o {
gsave
newpath
translate
0.8 setlinewidth
1 setlinejoin
0 setlinecap
0 0 m
0 -3.5 l

gsave
0.000 setgray
fill
grestore
stroke
grestore
} bind def
376.843 36 o
grestore
gsave
379.600670 -0.875000 translate
90.000000 rotate
0.000000 0.000000 m /P glyphshow
6.030273 0.000000 m /h glyphshow
12.368164 0.000000 m /a glyphshow
18.496094 0.000000 m /s glyphshow
23.706055 0.000000 m /e glyphshow
grestore
gsave
199.134375 -59.609375 translate
0.000000 rotate
0.000000 0.000000 m /v glyphshow
5.917969 0.000000 m /a glyphshow
12.045898 0.000000 m /r glyphshow
16.157227 0.000000 m /n glyphshow
22.495117 0.000000 m /a glyphshow
28.623047 0.000000 m /m glyphshow
38.364258 0.000000 m /e glyphshow
grestore
gsave
/o {
gsave
newpath
translate
0.8 setlinewidth
1 setlinejoin
0 setlinecap
0 0 m
-3.5 0 l

gsave
0.000 setgray
fill
grestore
stroke
grestore
} bind def
54 74.5439 o
grestore
gsave
22.718750 70.746977 translate
0.000000 rotate
0.000000 0.000000 m /minus glyphshow
8.378906 0.000000 m /zero glyphshow
14.741211 0.000000 m /period glyphshow
17.919922 0.000000 m /four glyphshow
grestore
gsave
/o {
gsave
newpath
translate
0.8 setlinewidth
1 setlinejoin
0 setlinecap
0 0 m
-3.5 0 l

gsave
0.000 setgray
fill
grestore
stroke
grestore
} bind def
54 114.241 o
grestore
gsave
22.718750 110.444071 translate
0.000000 rotate
0.000000 0.000000 m /minus glyphshow
8.378906 0.000000 m /zero glyphshow
14.741211 0.000000 m /period glyphshow
17.919922 0.000000 m /three glyphshow
grestore
gsave
/o {
gsave
newpath
translate
0.8 setlinewidth
1 setlinejoin
0 setlinecap
0 0 m
-3.5 0 l

gsave
0.000 setgray
fill
grestore
stroke
grestore
} bind def
54 153.938 o
grestore
gsave
22.718750 150.141166 translate
0.000000 rotate
0.000000 0.000000 m /minus glyphshow
8.378906 0.000000 m /zero glyphshow
14.741211 0.000000 m /period glyphshow
17.919922 0.000000 m /two glyphshow
grestore
gsave
/o {
gsave
newpath
translate
0.8 setlinewidth
1 setlinejoin
0 setlinecap
0 0 m
-3.5 0 l

gsave
0.000 setgray
fill
grestore
stroke
grestore
} bind def
54 193.635 o
grestore
gsave
22.718750 189.838260 translate
0.000000 rotate
0.000000 0.000000 m /minus glyphshow
8.378906 0.000000 m /zero glyphshow
14.741211 0.000000 m /period glyphshow
17.919922 0.000000 m /one glyphshow
grestore
gsave
/o {
gsave
newpath
translate
0.8 setlinewidth
1 setlinejoin
0 setlinecap
0 0 m
-3.5 0 l

gsave
0.000 setgray
fill
grestore
stroke
grestore
} bind def
54 233.332 o
grestore
gsave
31.093750 229.535355 translate
0.000000 rotate
0.000000 0.000000 m /zero glyphshow
6.362305 0.000000 m /period glyphshow
9.541016 0.000000 m /zero glyphshow
grestore
1.500 setlinewidth
gsave
334.8 217.4 54 36 clipbox
61.473214 227.20471 m
61.473214 227.466445 l
stroke
grestore
gsave
334.8 217.4 54 36 clipbox
85.3875 211.142919 m
85.3875 211.893513 l
stroke
grestore
gsave
334.8 217.4 54 36 clipbox
109.301786 216.125599 m
109.301786 216.506723 l
stroke
grestore
gsave
334.8 217.4 54 36 clipbox
133.216071 212.426785 m
133.216071 212.86088 l
stroke
grestore
gsave
334.8 217.4 54 36 clipbox
157.130357 226.604061 m
157.130357 227.000133 l
stroke
grestore
gsave
334.8 217.4 54 36 clipbox
181.044643 228.520677 m
181.044643 228.903022 l
stroke
grestore
gsave
334.8 217.4 54 36 clipbox
204.958929 239.554935 m
204.958929 239.964674 l
stroke
grestore
gsave
334.8 217.4 54 36 clipbox
228.873214 143.314828 m
228.873214 144.065715 l
stroke
grestore
gsave
334.8 217.4 54 36 clipbox
252.7875 45.883636 m
252.7875 46.830642 l
stroke
grestore
gsave
334.8 217.4 54 36 clipbox
276.701786 239.257374 m
276.701786 239.646022 l
stroke
grestore
gsave
334.8 217.4 54 36 clipbox
300.616071 239.725879 m
300.616071 240.113784 l
stroke
grestore
gsave
334.8 217.4 54 36 clipbox
324.530357 242.223885 m
324.530357 242.620319 l
stroke
grestore
gsave
334.8 217.4 54 36 clipbox
348.444643 242.169224 m
348.444643 242.565574 l
stroke
grestore
gsave
334.8 217.4 54 36 clipbox
372.358929 243.148992 m
372.358929 243.556364 l
stroke
grestore
gsave
334.8 217.4 54 36 clipbox
64.4625 230.271011 m
64.4625 230.368166 l
stroke
grestore
gsave
334.8 217.4 54 36 clipbox
88.376786 220.479338 m
88.376786 220.800311 l
stroke
grestore
gsave
334.8 217.4 54 36 clipbox
112.291071 232.049957 m
112.291071 232.191651 l
stroke
grestore
gsave
334.8 217.4 54 36 clipbox
136.205357 225.096628 m
136.205357 225.264035 l
stroke
grestore
gsave
334.8 217.4 54 36 clipbox
160.119643 231.743409 m
160.119643 231.891253 l
stroke
grestore
gsave
334.8 217.4 54 36 clipbox
184.033929 232.355219 m
184.033929 232.498148 l
stroke
grestore
gsave
334.8 217.4 54 36 clipbox
207.948214 235.357805 m
207.948214 235.510266 l
stroke
grestore
gsave
334.8 217.4 54 36 clipbox
231.8625 207.913085 m
231.8625 208.202464 l
stroke
grestore
gsave
334.8 217.4 54 36 clipbox
255.776786 179.749531 m
255.776786 180.185371 l
stroke
grestore
gsave
334.8 217.4 54 36 clipbox
279.691071 237.591082 m
279.691071 237.732674 l
stroke
grestore
gsave
334.8 217.4 54 36 clipbox
303.605357 237.584835 m
303.605357 237.726418 l
stroke
grestore
gsave
334.8 217.4 54 36 clipbox
327.519643 234.820216 m
327.519643 234.965567 l
stroke
grestore
gsave
334.8 217.4 54 36 clipbox
351.433929 234.895059 m
351.433929 235.040517 l
stroke
grestore
gsave
334.8 217.4 54 36 clipbox
375.348214 231.550798 m
375.348214 231.699509 l
stroke
grestore
gsave
334.8 217.4 54 36 clipbox
67.451786 233.178314 m
67.451786 233.270539 l
stroke
grestore
gsave
334.8 217.4 54 36 clipbox
91.366071 213.852489 m
91.366071 214.129567 l
stroke
grestore
gsave
334.8 217.4 54 36 clipbox
115.280357 233.236148 m
115.280357 233.370609 l
stroke
grestore
gsave
334.8 217.4 54 36 clipbox
139.194643 226.788643 m
139.194643 226.949187 l
stroke
grestore
gsave
334.8 217.4 54 36 clipbox
163.108929 231.783998 m
163.108929 231.924531 l
stroke
grestore
gsave
334.8 217.4 54 36 clipbox
187.023214 232.206079 m
187.023214 232.342032 l
stroke
grestore
gsave
334.8 217.4 54 36 clipbox
210.9375 234.708068 m
210.9375 234.853106 l
stroke
grestore
gsave
334.8 217.4 54 36 clipbox
234.851786 217.515264 m
234.851786 217.783247 l
stroke
grestore
gsave
334.8 217.4 54 36 clipbox
258.766071 176.829824 m
258.766071 177.222021 l
stroke
grestore
gsave
334.8 217.4 54 36 clipbox
282.680357 234.309401 m
282.680357 234.441394 l
stroke
grestore
gsave
334.8 217.4 54 36 clipbox
306.594643 234.383319 m
306.594643 234.515334 l
stroke
grestore
gsave
334.8 217.4 54 36 clipbox
330.508929 236.330382 m
330.508929 236.465988 l
stroke
grestore
gsave
334.8 217.4 54 36 clipbox
354.423214 236.338103 m
354.423214 236.473722 l
stroke
grestore
gsave
334.8 217.4 54 36 clipbox
378.3375 230.293212 m
378.3375 230.441695 l
stroke
grestore
gsave
334.8 217.4 54 36 clipbox
70.441071 231.317259 m
70.441071 231.440169 l
stroke
grestore
gsave
334.8 217.4 54 36 clipbox
94.355357 190.465535 m
94.355357 190.770565 l
stroke
grestore
gsave
334.8 217.4 54 36 clipbox
118.269643 221.604033 m
118.269643 221.783466 l
stroke
grestore
gsave
334.8 217.4 54 36 clipbox
142.183929 228.894463 m
142.183929 229.101377 l
stroke
grestore
gsave
334.8 217.4 54 36 clipbox
166.098214 230.453959 m
166.098214 230.642127 l
stroke
grestore
gsave
334.8 217.4 54 36 clipbox
190.0125 231.512143 m
190.0125 231.694165 l
stroke
grestore
gsave
334.8 217.4 54 36 clipbox
213.926786 236.821456 m
213.926786 237.015148 l
stroke
grestore
gsave
334.8 217.4 54 36 clipbox
237.841071 217.456445 m
237.841071 217.769305 l
stroke
grestore
gsave
334.8 217.4 54 36 clipbox
261.755357 115.164525 m
261.755357 115.591081 l
stroke
grestore
gsave
334.8 217.4 54 36 clipbox
285.669643 231.435084 m
285.669643 231.613322 l
stroke
grestore
gsave
334.8 217.4 54 36 clipbox
309.583929 231.622847 m
309.583929 231.800797 l
stroke
grestore
gsave
334.8 217.4 54 36 clipbox
333.498214 228.10811 m
333.498214 228.287713 l
stroke
grestore
gsave
334.8 217.4 54 36 clipbox
357.4125 228.265595 m
357.4125 228.445224 l
stroke
grestore
gsave
334.8 217.4 54 36 clipbox
381.326786 234.423035 m
381.326786 234.609522 l
stroke
grestore
0.800 setlinewidth
0 setlinejoin
2 setlinecap
[] 0 setdash
gsave
54 36 m
54 253.44 l
stroke
grestore
gsave
388.8 36 m
388.8 253.44 l
stroke
grestore
gsave
54 36 m
388.8 36 l
stroke
grestore
gsave
54 253.44 m
388.8 253.44 l
stroke
grestore
1.000 setlinewidth
0 setlinecap
0.800 setgray
gsave
61 41 m
157.90625 41 l
159.239583 41 159.90625 41.666667 159.90625 43 c
159.90625 115.640625 l
159.90625 116.973958 159.239583 117.640625 157.90625 117.640625 c
61 117.640625 l
59.666667 117.640625 59 116.973958 59 115.640625 c
59 43 l
59 41.666667 59.666667 41 61 41 c
cl
gsave
1.000 setgray
fill
grestore
stroke
grestore
0.000 setgray
gsave
96.875000 106.046875 translate
0.000000 rotate
0.000000 0.000000 m /b glyphshow
6.347656 0.000000 m /a glyphshow
12.475586 0.000000 m /n glyphshow
18.813477 0.000000 m /d glyphshow
grestore
gsave
63 91.375 m
83 91.375 l
83 98.375 l
63 98.375 l
cl
0.000 0.447 0.698 setrgbcolor
fill
grestore
gsave
91.000000 91.375000 translate
0.000000 rotate
0.000000 0.000000 m /t glyphshow
3.920898 0.000000 m /h glyphshow
10.258789 0.000000 m /e glyphshow
16.411133 0.000000 m /t glyphshow
20.332031 0.000000 m /a glyphshow
grestore
gsave
63 76.703125 m
83 76.703125 l
83 83.703125 l
63 83.703125 l
cl
0.000 0.620 0.451 setrgbcolor
fill
grestore
gsave
91.000000 76.703125 translate
0.000000 rotate
0.000000 0.000000 m /b glyphshow
6.347656 0.000000 m /e glyphshow
12.500000 0.000000 m /t glyphshow
16.420898 0.000000 m /a glyphshow
grestore
gsave
63 62.03125 m
83 62.03125 l
83 69.03125 l
63 69.03125 l
cl
0.835 0.369 0.000 setrgbcolor
fill
grestore
gsave
91.000000 62.031250 translate
0.000000 rotate
0.000000 0.000000 m /g glyphshow
6.347656 0.000000 m /a glyphshow
12.475586 0.000000 m /m glyphshow
22.216797 0.000000 m /m glyphshow
31.958008 0.000000 m /a glyphshow
grestore
gsave
63 47.359375 m
83 47.359375 l
83 54.359375 l
63 54.359375 l
cl
0.800 0.475 0.655 setrgbcolor
fill
grestore
gsave
91.000000 47.359375 translate
0.000000 rotate
0.000000 0.000000 m /h glyphshow
6.337891 0.000000 m /i glyphshow
9.116211 0.000000 m /g glyphshow
15.463867 0.000000 m /h glyphshow
21.801758 0.000000 m /underscore glyphshow
26.801758 0.000000 m /g glyphshow
33.149414 0.000000 m /a glyphshow
39.277344 0.000000 m /m glyphshow
49.018555 0.000000 m /m glyphshow
58.759766 0.000000 m /a glyphshow
grestore

end
showpage
